1117	1	-5	0	deborah.cantrell@colorado.edu	2016-12-28 16:21:15	2016-12-28 16:21:15	0
1135	1	-5	0	denean.hill@colorado.edu	2016-12-28 05:33:55	2016-12-28 05:33:55	0
1135	2	30	0	denean.hill@colorado.edu	2017-06-15 12:52:02	2017-06-15 12:52:05	0
1135	1	40	0	denean.hill@colorado.edu	2017-07-04 20:20:50	2017-07-04 20:20:50	0
1336	1	-5	0	e-newsletter@txpd.org	2016-12-28 05:30:47	2016-12-28 05:30:47	0
3196	1	-5	0	mark.loewenstein@colorado.edu	2017-02-02 05:54:08	2017-02-02 05:54:08	0
3196	1	30	0	mark.loewenstein@colorado.edu	2017-06-16 18:36:02	2017-06-16 18:36:02	0
3689	1	19	0	norman.aaronson@colorado.edu	2017-05-03 01:54:21	2017-05-03 01:54:21	0
3689	1	27	0	norman.aaronson@colorado.edu	2017-06-15 07:24:51	2017-06-15 07:24:51	0
3689	1	30	0	norman.aaronson@colorado.edu	2017-06-16 11:54:49	2017-06-16 11:54:49	0
3689	1	40	0	norman.aaronson@colorado.edu	2017-07-04 14:20:49	2017-07-04 14:20:49	0
3853	1	21	0	philip.bienvenu@colorado.edu	2017-05-25 21:14:16	2017-05-25 21:14:16	0
4150	2	19	0	richard.collins@colorado.edu	2017-05-03 02:10:08	2017-05-03 02:10:08	0
5062	1	-5	0	whiting.leary@colorado.edu	2017-02-02 16:10:47	2017-02-02 16:10:47	0
5062	1	27	0	whiting.leary@colorado.edu	2017-06-28 14:17:27	2017-06-28 14:17:27	0
5062	1	33	0	whiting.leary@colorado.edu	2017-06-28 14:17:37	2017-06-28 14:17:37	0
5062	1	35	0	whiting.leary@colorado.edu	2017-06-28 14:15:51	2017-06-28 14:15:51	0
21890	2	-5	0	abc7news_ms@abclocal.go.com	2016-12-28 19:46:04	2016-12-28 19:48:01	0
21929	1	26	0	abrumback@chicagotribune.com	2017-06-06 04:48:58	2017-06-06 04:48:58	0
22056	1	-5	0	adinfowinnipeg@metronews.ca	2016-12-28 15:24:52	2016-12-28 15:24:52	0
22215	1	-5	0	aflood@indiana.edu	2016-12-28 11:40:08	2016-12-28 11:40:08	0
22460	1	-5	0	alfargo@indiana.edu	2016-12-28 14:54:28	2016-12-28 14:54:28	0
22486	1	-5	0	allerhan@indiana.edu	2016-12-28 12:52:55	2016-12-28 12:52:55	0
22766	2	-5	0	anjunh@indiana.edu	2016-12-28 15:15:40	2016-12-28 15:57:50	0
23046	1	-5	0	asorg@indiana.edu	2016-12-28 11:49:05	2016-12-28 11:49:05	0
23188	1	13	0	azaykov@indiana.edu	2017-02-06 16:36:41	2017-02-06 16:36:41	0
23195	1	-5	0	azlotnic@indiana.edu	2016-12-28 15:04:53	2016-12-28 15:04:53	0
23644	1	-5	0	birthdays@9and10news.com	2016-12-28 07:10:34	2016-12-28 07:10:34	0
23885	1	-5	0	bpwither@indiana.edu	2016-12-28 16:26:17	2016-12-28 16:26:17	0
23885	1	13	0	bpwither@indiana.edu	2017-02-04 02:15:45	2017-02-04 02:15:45	0
23889	1	26	0	braby@federalnewsradio.com	2017-06-04 22:56:05	2017-06-04 22:56:05	0
24096	2	-5	0	bstein@indiana.edu	2016-12-28 12:54:24	2016-12-28 13:11:54	0
24215	1	13	0	c3knews@channel3000.com	2017-02-06 15:42:19	2017-02-06 15:42:19	0
24232	2	19	0	calgary@metronews.ca	2017-05-06 03:29:41	2017-05-06 16:15:05	0
24385	1	-5	0	caspernews@townsquaremedia.com	2016-12-28 11:09:54	2016-12-28 11:09:54	0
24385	1	26	0	caspernews@townsquaremedia.com	2017-06-04 23:18:37	2017-06-04 23:18:37	0
24479	1	19	0	cc@valleynewslive.com	2017-05-03 12:56:52	2017-05-03 12:56:52	0
24582	1	-5	0	cfelton@indiana.edu	2017-01-03 17:51:18	2017-01-03 17:51:18	0
24725	1	-5	0	chcooley@indiana.edu	2016-12-28 16:03:06	2016-12-28 16:03:06	0
24795	2	40	0	chisholk@indiana.edu	2017-07-03 13:12:36	2017-07-03 13:12:45	0
24945	1	42	0	cjackson@localnews8.com	2017-07-17 20:29:38	2017-07-17 20:29:38	0
25029	2	13	0	classifieds@delrionewsherald.com	2017-02-03 22:58:45	2017-02-06 18:50:01	0
25044	1	-5	0	clayw@kdhnews.com	2016-12-29 14:32:52	2016-12-29 14:32:52	0
25108	1	19	0	clutomsk@indiana.edu	2017-05-05 14:24:22	2017-05-05 14:24:22	0
25178	1	-5	0	cohenjm@indiana.edu	2016-12-28 08:34:09	2016-12-28 08:34:09	0
25235	1	-5	0	comments@komo1000news.com	2016-12-28 15:56:28	2016-12-28 15:56:28	0
25435	1	-5	0	creative@9and10news.com	2016-12-28 12:45:38	2016-12-28 12:45:38	0
26141	1	40	0	deptsec@indiana.edu	2017-07-06 12:18:09	2017-07-06 12:18:09	0
26206	1	26	0	dgarner@federalnewsradio.com	2017-06-04 23:21:30	2017-06-04 23:21:30	0
26389	2	41	0	dkerler@indiana.edu	2017-07-09 12:20:38	2017-07-09 12:32:55	0
26647	1	26	0	dragnea@indiana.edu	2017-06-07 19:46:45	2017-06-07 19:46:45	0
27073	1	-5	0	eisenber@indiana.edu	2016-12-28 21:05:31	2016-12-28 21:05:31	0
27073	2	26	0	eisenber@indiana.edu	2017-06-05 15:58:45	2017-06-05 15:59:07	0
27245	1	26	0	englishnews@arn.ae	2017-06-05 07:55:12	2017-06-05 07:55:12	0
27245	2	40	0	englishnews@arn.ae	2017-07-03 07:31:11	2017-07-03 07:31:11	0
27406	1	25	0	evan.horowitz@globe.com	2017-05-27 15:35:58	2017-05-27 15:35:58	0
27417	1	-5	0	events@indiana.edu	2017-02-01 20:21:58	2017-02-01 20:21:58	0
27487	1	26	0	fangwu@indiana.edu	2017-06-06 22:10:14	2017-06-06 22:10:14	0
27523	1	19	0	fcparks@indiana.edu	2017-05-08 20:37:07	2017-05-08 20:37:07	0
27656	1	-5	0	foxcarolinanews@foxcarolina.com	2016-12-28 11:16:39	2016-12-28 11:16:39	0
28485	1	-5	0	halifax_distribution@metronews.ca	2016-12-28 13:17:13	2016-12-28 13:17:13	0
28485	2	13	0	halifax_distribution@metronews.ca	2017-02-04 08:21:55	2017-02-04 17:30:17	0
28485	1	19	0	halifax_distribution@metronews.ca	2017-05-07 20:49:03	2017-05-07 20:49:03	0
28485	1	21	0	halifax_distribution@metronews.ca	2017-05-25 14:29:23	2017-05-25 14:29:23	0
28485	1	26	0	halifax_distribution@metronews.ca	2017-06-05 03:35:50	2017-06-05 03:35:50	0
28518	1	21	0	hans.schulz@globe.com	2017-05-25 12:37:02	2017-05-25 12:37:02	0
28518	1	35	0	hans.schulz@globe.com	2017-06-17 13:05:10	2017-06-17 13:05:10	0
28518	1	53	0	hans.schulz@globe.com	2017-09-19 17:46:15	2017-09-19 17:46:15	0
28696	2	-5	0	hieftje@indiana.edu	2016-12-28 13:10:12	2016-12-28 16:32:25	0
28696	2	13	0	hieftje@indiana.edu	2017-02-03 23:55:05	2017-02-07 03:16:57	0
28696	1	19	0	hieftje@indiana.edu	2017-05-05 18:19:26	2017-05-05 18:19:26	0
28696	1	26	0	hieftje@indiana.edu	2017-06-04 23:06:55	2017-06-04 23:06:55	0
28740	2	26	0	hmashber@indiana.edu	2017-06-21 19:03:34	2017-06-21 19:03:49	0
28830	1	-5	0	hrmalone@indiana.edu	2017-01-03 18:46:31	2017-01-03 18:46:31	0
28853	1	-5	0	huffman@indiana.edu	2016-12-28 13:40:40	2016-12-28 13:40:40	0
28853	1	6	0	huffman@indiana.edu	2017-04-01 01:32:57	2017-04-01 01:32:57	0
29668	1	-5	0	iyengar@indiana.edu	2016-12-28 14:43:53	2016-12-28 14:43:53	0
29713	1	-5	0	jacob.wycoff@westernmassnews.com	2016-12-28 10:50:00	2016-12-28 10:50:00	0
29719	1	-5	0	jacobson@indiana.edu	2016-12-28 15:44:19	2016-12-28 15:44:19	0
29870	1	-5	0	jason.walsh@sonomanews.com	2016-12-28 07:05:35	2016-12-28 07:05:35	0
29870	1	13	0	jason.walsh@sonomanews.com	2017-02-03 22:49:10	2017-02-03 22:49:10	0
29870	1	19	0	jason.walsh@sonomanews.com	2017-05-03 05:26:33	2017-05-03 05:26:33	0
29870	1	25	0	jason.walsh@sonomanews.com	2017-05-26 12:59:38	2017-05-26 12:59:38	0
29870	1	26	0	jason.walsh@sonomanews.com	2017-06-04 22:58:47	2017-06-04 22:58:47	0
29876	1	19	0	jason@threeriversnews.com	2017-05-03 12:15:52	2017-05-03 12:15:52	0
29876	1	26	0	jason@threeriversnews.com	2017-06-05 12:22:56	2017-06-05 12:22:56	0
29876	1	40	0	jason@threeriversnews.com	2017-07-03 12:25:49	2017-07-03 12:25:49	0
30143	1	-5	0	jeffblakeman@9and10news.com	2016-12-28 07:06:20	2016-12-28 07:06:20	0
30143	1	13	0	jeffblakeman@9and10news.com	2017-02-03 22:55:19	2017-02-03 22:55:19	0
30471	1	-5	0	jirobins@indiana.edu	2016-12-28 14:03:00	2016-12-28 14:03:00	0
30509	1	-5	0	jkarty@indiana.edu	2016-12-28 12:18:39	2016-12-28 12:18:39	0
30512	2	-5	0	jkcran@indiana.edu	2016-12-28 15:02:00	2016-12-28 18:03:30	0
30695	1	-5	0	jmschott@indiana.edu	2016-12-28 16:46:10	2016-12-28 16:46:10	0
31146	1	13	0	jsprague@newsexaminer.com	2017-02-04 16:31:31	2017-02-04 16:31:31	0
31146	1	19	0	jsprague@newsexaminer.com	2017-05-03 12:34:41	2017-05-03 12:34:41	0
31146	2	26	0	jsprague@newsexaminer.com	2017-06-05 12:16:31	2017-06-05 12:20:08	0
31256	1	-5	0	jungseo@indiana.edu	2016-12-28 07:08:07	2016-12-28 07:08:07	0
31582	1	19	0	keith.bedford@globe.com	2017-05-05 11:32:28	2017-05-05 11:32:28	0
32002	1	-5	0	kraghava@indiana.edu	2016-12-28 08:10:57	2016-12-28 08:10:57	0
32679	1	40	0	liuyij@indiana.edu	2017-09-10 03:15:42	2017-09-10 03:15:42	0
32679	1	41	0	liuyij@indiana.edu	2017-09-10 03:09:57	2017-09-10 03:09:57	0
32976	1	-5	0	lybronst@indiana.edu	2016-12-28 12:07:20	2016-12-28 12:07:20	0
33123	1	-5	0	managingeditor@sonomanews.com	2016-12-28 07:10:20	2016-12-28 07:10:20	0
33123	1	13	0	managingeditor@sonomanews.com	2017-02-03 22:55:22	2017-02-03 22:55:22	0
33123	1	19	0	managingeditor@sonomanews.com	2017-05-03 05:28:20	2017-05-03 05:28:20	0
33123	1	25	0	managingeditor@sonomanews.com	2017-05-26 12:59:55	2017-05-26 12:59:55	0
33123	2	26	0	managingeditor@sonomanews.com	2017-06-04 23:00:24	2017-06-07 20:17:12	0
33685	1	-5	0	meganwoods@9and10news.com	2016-12-28 12:31:38	2016-12-28 12:31:38	0
34351	1	-5	0	montgome@indiana.edu	2016-12-30 18:48:22	2016-12-30 18:48:22	0
34377	1	-5	0	morganm@indiana.edu	2016-12-28 07:42:18	2016-12-28 07:42:18	0
34377	1	13	0	morganm@indiana.edu	2017-02-03 23:13:06	2017-02-03 23:13:06	0
34382	1	-5	0	mornings@komo4news.com	2016-12-28 16:40:37	2016-12-28 16:40:37	0
34644	1	-5	0	mvannieu@indiana.edu	2016-12-28 15:58:35	2016-12-28 15:58:35	0
34845	1	19	0	nestor.ramos@globe.com	2017-05-05 09:11:29	2017-05-05 09:11:29	0
34866	1	19	0	news.comments@wvlt-tv.com	2017-05-03 09:39:52	2017-05-03 09:39:52	0
34866	1	40	0	news.comments@wvlt-tv.com	2017-07-02 19:03:20	2017-07-02 19:03:20	0
34868	2	-5	0	news12@kxii.com	2016-12-28 14:22:37	2016-12-28 14:36:55	0
34868	1	13	0	news12@kxii.com	2017-02-03 22:58:51	2017-02-03 22:58:51	0
34868	2	19	0	news12@kxii.com	2017-05-03 12:52:03	2017-05-03 16:16:38	0
34868	2	26	0	news12@kxii.com	2017-06-05 00:47:26	2017-06-05 01:07:39	0
34869	1	13	0	news4@cbs4indy.com	2017-02-04 23:25:32	2017-02-04 23:25:32	0
34872	1	-5	0	news5@wkrg.com	2016-12-28 07:39:47	2016-12-28 07:39:47	0
34883	1	-5	0	news@capradio.org	2016-12-28 22:45:28	2016-12-28 22:45:28	0
34883	2	13	0	news@capradio.org	2017-02-03 23:07:28	2017-02-03 23:31:42	0
34895	1	19	0	news@dailymail.co.uk	2017-05-03 08:27:08	2017-05-03 08:27:08	0
34904	2	13	0	news@herald-zeitung.com	2017-02-03 23:08:13	2017-02-03 23:31:22	0
34910	2	-5	0	news@kbtx.com	2016-12-28 07:17:14	2016-12-28 12:08:13	0
34910	2	13	0	news@kbtx.com	2017-02-03 23:06:36	2017-02-04 03:57:08	0
34910	1	25	0	news@kbtx.com	2017-05-26 13:00:23	2017-05-26 13:00:23	0
34911	1	-5	0	news@keyetv.com	2016-12-28 07:39:31	2016-12-28 07:39:31	0
34923	1	13	0	news@ktalnews.tv	2017-02-04 13:10:27	2017-02-04 13:10:27	0
34925	1	25	0	news@kusi.com	2017-05-27 05:40:57	2017-05-27 05:40:57	0
34925	1	26	0	news@kusi.com	2017-06-05 02:08:03	2017-06-05 02:08:03	0
34925	1	35	0	news@kusi.com	2017-06-19 18:29:40	2017-06-19 18:29:40	0
34932	2	26	0	news@nbcconnecticut.com	2017-06-05 15:35:32	2017-06-05 16:17:09	0
34965	1	13	0	news@wfmy.com	2017-02-03 23:08:03	2017-02-03 23:08:03	0
34966	2	13	0	news@wghp.com	2017-02-04 03:15:51	2017-02-04 12:08:04	0
34968	2	13	0	news@wifr.com	2017-02-03 23:04:19	2017-02-06 05:19:04	0
34968	1	25	0	news@wifr.com	2017-05-26 13:11:53	2017-05-26 13:11:53	0
34968	1	26	0	news@wifr.com	2017-06-05 03:16:45	2017-06-05 03:16:45	0
34970	2	47	0	news@wlbt.com	2017-08-12 18:17:29	2017-08-12 22:52:23	0
34977	1	-5	0	newsdesk.times@krnmedia.co.uk	2016-12-28 09:03:35	2016-12-28 09:03:35	0
34994	1	26	0	newsdesk@kpix.com	2017-06-04 19:11:35	2017-06-04 19:11:35	0
35015	1	-5	0	newsdirector@9and10news.com	2016-12-29 01:34:23	2016-12-29 01:34:23	0
35015	1	13	0	newsdirector@9and10news.com	2017-02-03 23:18:28	2017-02-03 23:18:28	0
35023	1	47	0	newsroom@idahopress.com	2017-08-12 16:17:25	2017-08-12 16:17:25	0
35025	1	21	0	newsroom@nbc12.com	2017-05-22 15:28:28	2017-05-22 15:28:28	0
35025	1	53	0	newsroom@nbc12.com	2017-09-19 18:13:10	2017-09-19 18:13:10	0
35028	1	13	0	newsteam@fox61.com	2017-02-04 15:45:52	2017-02-04 15:45:52	0
35032	2	26	0	newstips@baltimoresun.com	2017-06-04 20:22:43	2017-06-05 01:51:31	0
35032	1	53	0	newstips@baltimoresun.com	2017-09-19 17:45:01	2017-09-19 17:45:01	0
35034	2	13	0	newstips@khou.com	2017-02-03 23:02:35	2017-02-03 23:24:07	0
35035	1	26	0	newstips@kmvt.com	2017-06-05 16:03:32	2017-06-05 16:03:32	0
35035	1	35	0	newstips@kmvt.com	2017-06-20 18:05:02	2017-06-20 18:05:02	0
35036	2	26	0	newstips@nbcdfw.com	2017-06-05 15:26:26	2017-06-05 15:59:39	0
35041	2	-5	0	newstips@wtvr.com	2016-12-28 12:49:13	2016-12-28 17:44:45	0
35205	2	-5	0	npohl@indiana.edu	2016-12-28 14:09:01	2016-12-28 15:23:43	0
35266	1	-5	0	nzadoff@indiana.edu	2016-12-28 07:33:55	2016-12-28 07:33:55	0
35266	1	47	0	nzadoff@indiana.edu	2017-08-12 21:51:48	2017-08-12 21:51:48	0
35285	1	13	0	obits@timesnews.net	2017-02-03 22:58:18	2017-02-03 22:58:18	0
35477	1	-5	0	omkabia@indiana.edu	2016-12-28 15:52:17	2016-12-28 15:52:17	0
35482	1	-5	0	oneclassifieds@observernewsonline.com	2016-12-28 15:02:40	2016-12-28 15:02:40	0
35495	1	26	0	oparker@globeandmail.com	2017-06-04 23:05:31	2017-06-04 23:05:31	0
35612	1	-5	0	pamroz@indiana.edu	2016-12-28 14:18:52	2016-12-28 14:18:52	0
36463	1	-5	0	promotions@9and10news.com	2016-12-28 12:45:37	2016-12-28 12:45:37	0
36463	1	13	0	promotions@9and10news.com	2017-02-06 12:37:29	2017-02-06 12:37:29	0
36502	1	-5	0	pstevens@indiana.edu	2016-12-28 14:12:17	2016-12-28 14:12:17	0
37136	2	-5	0	rhare@indiana.edu	2016-12-28 12:08:12	2016-12-28 12:08:12	0
37156	1	26	0	rhnews@register-herald.com	2017-06-05 14:29:25	2017-06-05 14:29:25	0
37156	2	40	0	rhnews@register-herald.com	2017-07-03 12:30:05	2017-07-03 14:32:14	0
37167	1	26	0	rhorness@indiana.edu	2017-07-03 19:08:09	2017-07-03 19:08:09	0
37572	1	-5	0	rsaliba@indiana.edu	2017-01-08 09:13:25	2017-01-08 09:13:25	0
37715	2	-5	0	rychan@indiana.edu	2016-12-28 07:42:17	2016-12-29 20:58:54	0
37796	2	-5	0	sales@9and10news.com	2016-12-28 14:28:21	2017-01-23 12:35:12	0
37796	2	13	0	sales@9and10news.com	2017-02-03 23:50:44	2017-02-03 23:59:05	0
37931	1	19	0	sasramos@indiana.edu	2017-05-05 22:05:33	2017-05-05 22:05:33	0
37931	1	26	0	sasramos@indiana.edu	2017-06-06 18:23:22	2017-06-06 18:23:22	0
38298	1	-5	0	seimhoff@indiana.edu	2016-12-28 12:54:09	2016-12-28 12:54:09	0
38514	1	-5	0	sheila.holder@religionnews.com	2016-12-28 13:30:20	2016-12-28 13:30:20	0
38560	1	-5	0	shieftje@indiana.edu	2016-12-28 12:38:21	2016-12-28 12:38:21	0
38597	1	19	0	shmurphy@globe.com	2017-05-05 07:49:29	2017-05-05 07:49:29	0
38618	1	-5	0	shudan@indiana.edu	2016-12-28 08:51:35	2016-12-28 08:51:35	0
38804	1	-5	0	smith962@indiana.edu	2016-12-28 19:23:58	2016-12-28 19:23:58	0
38877	1	-5	0	songxu@indiana.edu	2016-12-28 12:50:35	2016-12-28 12:50:35	0
38887	1	-5	0	sopkrahn@indiana.edu	2016-12-28 12:59:57	2016-12-28 12:59:57	0
38933	1	13	0	sports@9and10news.com	2017-02-03 23:18:28	2017-02-03 23:18:28	0
38966	2	-5	0	sportsdepartment@9and10news.com	2016-12-28 09:56:40	2016-12-29 01:34:21	0
38966	1	13	0	sportsdepartment@9and10news.com	2017-02-03 23:18:28	2017-02-03 23:18:28	0
39058	1	-5	0	sskrabal@indiana.edu	2016-12-28 12:31:20	2016-12-28 12:31:20	0
39081	1	26	0	sstewart@globeandmail.com	2017-06-04 18:52:33	2017-06-04 18:52:33	0
39081	1	49	0	sstewart@globeandmail.com	2017-08-26 15:29:25	2017-08-26 15:29:25	0
39759	2	-5	0	thielges@indiana.edu	2016-12-28 15:13:29	2017-01-07 00:04:47	0
40084	1	-5	0	trevdoug@indiana.edu	2016-12-28 08:05:31	2016-12-28 08:05:31	0
40138	1	-5	0	tsnaddon@indiana.edu	2016-12-28 07:26:58	2016-12-28 07:26:58	0
40157	1	26	0	ttemin@federalnewsradio.com	2017-06-05 00:54:44	2017-06-05 00:54:44	0
40310	1	19	0	vancouver_distribution@metronews.ca	2017-05-08 19:49:11	2017-05-08 19:49:11	0
40333	2	49	0	vchao@globe.com	2017-08-17 13:39:50	2017-08-17 14:16:02	0
40345	1	25	0	vennochi@globe.com	2017-05-27 15:28:04	2017-05-27 15:28:04	0
40345	1	35	0	vennochi@globe.com	2017-06-17 19:58:41	2017-06-17 19:58:41	0
40443	1	26	0	voicers@nydailynews.com	2017-06-05 02:16:00	2017-06-05 02:16:00	0
40443	1	40	0	voicers@nydailynews.com	2017-07-03 10:56:48	2017-07-03 10:56:48	0
40443	1	47	0	voicers@nydailynews.com	2017-08-13 01:32:24	2017-08-13 01:32:24	0
40445	1	-5	0	volkova@indiana.edu	2016-12-28 10:24:00	2016-12-28 10:24:00	0
40506	1	-5	0	wangjoe@indiana.edu	2016-12-28 12:31:24	2016-12-28 12:31:24	0
40512	1	19	0	wardsa@indiana.edu	2017-05-23 13:10:30	2017-05-23 13:10:30	0
40579	2	-5	0	weather@komo4news.com	2016-12-28 08:12:42	2016-12-28 15:30:06	0
40583	1	-5	0	weather@westernmassnews.com	2016-12-28 10:50:05	2016-12-28 10:50:05	0
40632	2	-5	0	webmaster@threeriversnews.com	2017-01-30 17:39:10	2017-01-30 17:39:15	0
40632	2	40	0	webmaster@threeriversnews.com	2017-07-03 02:14:55	2017-07-03 02:14:59	0
40632	1	45	0	webmaster@threeriversnews.com	2017-08-03 02:45:55	2017-08-03 02:45:55	0
40786	2	40	0	wlunews@wlu.edu	2017-07-10 13:45:19	2017-07-10 13:45:19	0
40925	1	-5	0	yangjing@indiana.edu	2016-12-28 19:09:33	2016-12-28 19:09:33	0
41095	2	-5	0	zaleski@indiana.edu	2016-12-28 16:01:20	2016-12-28 16:01:21	0
41832	1	43	0	kthome@stmorenews.com	2017-07-19 13:57:10	2017-07-19 13:57:10	0
47526	2	-5	0	mfarley@archchicago.org	2017-01-28 20:35:25	2017-01-31 15:26:33	0
47540	1	13	0	mmccaughey@archchicago.org	2017-02-04 01:21:09	2017-02-04 01:21:09	0
47540	1	19	0	mmccaughey@archchicago.org	2017-05-03 16:02:29	2017-05-03 16:02:29	0
47540	1	26	0	mmccaughey@archchicago.org	2017-06-04 19:59:27	2017-06-04 19:59:27	0
47540	1	53	0	mmccaughey@archchicago.org	2017-09-19 18:08:04	2017-09-19 18:08:04	0
47541	1	12	0	tmcgrath@archchicago.org	2017-02-04 02:34:33	2017-02-04 02:34:33	0
47543	1	26	0	rmcquade@archchicago.org	2017-06-05 02:41:41	2017-06-05 02:41:41	0
47546	1	-5	0	jpantle@archchicago.org	2017-01-28 20:24:58	2017-01-28 20:24:58	0
47546	1	13	0	jpantle@archchicago.org	2017-02-03 23:18:22	2017-02-03 23:18:22	0
47546	1	19	0	jpantle@archchicago.org	2017-05-04 01:35:47	2017-05-04 01:35:47	0
47546	1	21	0	jpantle@archchicago.org	2017-05-23 12:53:59	2017-05-23 12:53:59	0
47546	2	26	0	jpantle@archchicago.org	2017-06-05 17:15:12	2017-06-05 17:17:31	0
47554	1	19	0	mshabo@archchicago.org	2017-05-03 16:08:30	2017-05-03 16:08:30	0
47554	1	26	0	mshabo@archchicago.org	2017-06-05 16:07:54	2017-06-05 16:07:54	0
47560	2	-5	0	fvandenhende@archchicago.org	2017-01-31 17:43:48	2017-01-31 17:43:57	0
47566	1	-5	0	egallardo@archchicago.org	2017-01-31 18:43:22	2017-01-31 18:43:22	0
47571	1	13	0	drobak@archchicago.org	2017-02-04 01:12:48	2017-02-04 01:12:48	0
47571	1	19	0	drobak@archchicago.org	2017-05-03 17:19:41	2017-05-03 17:19:41	0
47571	1	53	0	drobak@archchicago.org	2017-09-19 17:19:36	2017-09-19 17:19:36	0
47574	1	26	0	lsalazar@archchicago.org	2017-06-05 00:45:22	2017-06-05 00:45:22	0
47574	1	53	0	lsalazar@archchicago.org	2017-09-19 19:29:17	2017-09-19 19:29:17	0
47579	2	-5	0	saadams@archchicago.org	2017-01-31 16:42:09	2017-01-31 16:42:09	0
47587	1	-5	0	magonzalez@archchicago.org	2017-01-31 15:36:10	2017-01-31 15:36:10	0
47587	2	19	0	magonzalez@archchicago.org	2017-05-03 15:21:08	2017-05-03 15:21:08	0
47591	1	-5	0	ttharayil@archchicago.org	2017-02-02 14:48:28	2017-02-02 14:48:28	0
47591	1	13	0	ttharayil@archchicago.org	2017-02-04 02:01:51	2017-02-04 02:01:51	0
47594	1	-5	0	kbudzikowski@archchicago.org	2017-01-31 15:26:14	2017-01-31 15:26:14	0
47594	1	7	0	kbudzikowski@archchicago.org	2017-02-07 21:49:39	2017-02-07 21:49:39	0
47594	1	13	0	kbudzikowski@archchicago.org	2017-02-04 04:20:32	2017-02-04 04:20:32	0
47594	1	21	0	kbudzikowski@archchicago.org	2017-05-22 15:40:34	2017-05-22 15:40:34	0
47594	1	26	0	kbudzikowski@archchicago.org	2017-06-05 03:20:41	2017-06-05 03:20:41	0
47595	1	-5	0	jdonovan@archchicago.org	2017-01-31 16:55:36	2017-01-31 16:55:36	0
47595	1	13	0	jdonovan@archchicago.org	2017-02-06 16:01:01	2017-02-06 16:01:01	0
47615	2	-5	0	elem.stann-18th@archchicago.org	2017-01-31 15:26:15	2017-01-31 15:40:34	0
47615	1	13	0	elem.stann-18th@archchicago.org	2017-02-05 16:39:58	2017-02-05 16:39:58	0
47681	1	-5	0	elem.stgeorge@archchicago.org	2017-01-28 20:13:09	2017-01-28 20:13:09	0
47681	2	21	0	elem.stgeorge@archchicago.org	2017-05-22 19:38:42	2017-05-22 19:38:43	0
47770	1	-5	0	elem.stpeter-peter@archchicago.org	2017-01-31 17:06:03	2017-01-31 17:06:03	0
47770	1	21	0	elem.stpeter-peter@archchicago.org	2017-05-22 16:18:16	2017-05-22 16:18:16	0
47775	1	-5	0	elem.popejohnpaulii@archchicago.org	2017-01-31 17:01:55	2017-01-31 17:01:55	0
47775	2	19	0	elem.popejohnpaulii@archchicago.org	2017-05-03 16:14:03	2017-05-03 16:18:17	0
47779	1	12	0	elem.queen-angels@archchicago.org	2017-02-04 00:31:11	2017-02-04 00:31:11	0
47779	1	19	0	elem.queen-angels@archchicago.org	2017-05-08 15:50:14	2017-05-08 15:50:14	0
47781	2	21	0	elem.queen-rosary@archchicago.org	2017-05-22 15:31:32	2017-05-22 15:31:48	0
47792	1	-5	0	elem.ststanislaus-noble@archchicago.org	2017-02-01 04:01:30	2017-02-01 04:01:30	0
47792	2	12	0	elem.ststanislaus-noble@archchicago.org	2017-02-12 21:16:47	2017-02-12 21:17:05	0
47792	1	21	0	elem.ststanislaus-noble@archchicago.org	2017-05-23 04:11:21	2017-05-23 04:11:21	0
47796	2	-5	0	elem.stthecla@archchicago.org	2017-02-02 16:24:16	2017-02-02 16:31:46	0
47815	1	13	0	hs.cristorey@archchicago.org	2017-02-03 23:07:10	2017-02-03 23:07:10	0
47815	1	19	0	hs.cristorey@archchicago.org	2017-05-03 15:35:43	2017-05-03 15:35:43	0
47815	1	21	0	hs.cristorey@archchicago.org	2017-05-22 15:32:27	2017-05-22 15:32:27	0
47815	1	26	0	hs.cristorey@archchicago.org	2017-06-04 19:00:47	2017-06-04 19:00:47	0
51145	1	42	0	partrytourmakeadynewsletter@yahoo.ie	2017-07-15 16:09:20	2017-07-15 16:09:20	0
58610	1	-5	0	newsletter@stpatrickstelford.com	2017-02-02 18:53:33	2017-02-02 18:53:33	0
58610	1	19	0	newsletter@stpatrickstelford.com	2017-05-05 11:15:35	2017-05-05 11:15:35	0
58610	1	26	0	newsletter@stpatrickstelford.com	2017-06-05 13:31:46	2017-06-05 13:31:46	0
79269	1	40	0	linda.newson@sas.ac.uk	2017-07-02 10:33:49	2017-07-02 10:33:49	0
79269	1	47	0	linda.newson@sas.ac.uk	2017-08-12 18:07:27	2017-08-12 18:07:27	0
114788	1	-5	0	oi-museum@uchicago.edu	2017-01-31 20:03:00	2017-01-31 20:03:00	0
120704	1	47	0	admissions@indianatech.edu	2017-08-14 12:14:22	2017-08-14 12:14:22	0
120707	1	47	0	jileonar@iupui.edu	2017-08-12 16:32:19	2017-08-12 16:32:19	0
123626	2	40	0	news8@kfmb.com	2017-07-02 17:47:24	2017-07-02 18:28:53	0
123627	1	13	0	news8sunrise@wroctv.com	2017-02-04 01:22:28	2017-02-04 01:22:28	0
123655	2	13	0	news@wtrf.com	2017-02-05 18:50:18	2017-03-29 01:56:04	0
123689	1	13	0	pictures@12news.com	2017-02-04 01:30:10	2017-02-04 01:30:10	0
124879	1	13	0	jkane@newshour.org	2017-02-04 00:39:30	2017-02-04 00:39:30	0
125091	2	13	0	mrancilio@newshour.org	2017-02-04 00:43:21	2017-02-04 00:43:23	0
125098	2	13	0	mwarner@newshour.org	2017-02-04 01:31:28	2017-02-04 01:31:29	0
125118	2	13	0	news@kake.com	2017-02-03 23:56:59	2017-02-04 04:11:15	0
125118	2	26	0	news@kake.com	2017-06-04 23:31:09	2017-06-05 04:03:18	0
125123	1	47	0	news@nebraska.tv	2017-08-12 17:17:54	2017-08-12 17:17:54	0
125125	1	26	0	news@wbko.com	2017-06-05 02:15:52	2017-06-05 02:15:52	0
125132	1	42	0	newstips@statesman.com	2017-07-15 07:16:42	2017-07-15 07:16:42	0
126856	1	50	0	garrettm@cbsnews.com	2017-09-09 02:59:29	2017-09-09 02:59:29	0
127169	1	49	0	icm@cbsnews.com	2017-08-21 10:06:59	2017-08-21 10:06:59	0
127186	1	26	0	irena.briganti@foxnews.com	2017-06-04 20:20:06	2017-06-04 20:20:06	0
127205	1	26	0	neil.cavuto@foxnews.com	2017-06-04 20:30:01	2017-06-04 20:30:01	0
127217	1	26	0	brian.kilmeade@foxnews.com	2017-06-04 21:00:30	2017-06-04 21:00:30	0
127226	1	26	0	chris.wallace@foxnews.com	2017-06-04 20:41:13	2017-06-04 20:41:13	0
127241	1	26	0	casey.stegall@foxnews.com	2017-06-05 04:45:07	2017-06-05 04:45:07	0
127247	1	26	0	alicia.acuna@foxnews.com	2017-06-05 00:52:10	2017-06-05 00:52:10	0
127259	1	26	0	ron.mitchell@foxnews.com	2017-06-04 20:47:55	2017-06-04 20:47:55	0
127565	2	26	0	info@newseum.org	2017-06-04 20:18:09	2017-06-04 20:47:11	0
127565	1	35	0	info@newseum.org	2017-06-19 02:34:41	2017-06-19 02:34:41	0
127565	1	40	0	info@newseum.org	2017-07-02 21:46:08	2017-07-02 21:46:08	0
127567	1	13	0	scoffey@newseum.org	2017-02-04 07:45:42	2017-02-04 07:45:42	0
127567	1	19	0	scoffey@newseum.org	2017-05-03 00:24:27	2017-05-03 00:24:27	0
127567	1	21	0	scoffey@newseum.org	2017-05-23 23:42:08	2017-05-23 23:42:08	0
127567	1	25	0	scoffey@newseum.org	2017-05-27 00:58:55	2017-05-27 00:58:55	0
127567	1	26	0	scoffey@newseum.org	2017-06-04 20:33:06	2017-06-04 20:33:06	0
127567	1	40	0	scoffey@newseum.org	2017-07-02 17:42:13	2017-07-02 17:42:13	0
127568	1	13	0	nmandeville@newseum.org	2017-02-04 11:09:05	2017-02-04 11:09:05	0
127568	1	21	0	nmandeville@newseum.org	2017-05-22 16:04:03	2017-05-22 16:04:03	0
127573	1	19	0	ctrost@newseum.org	2017-05-03 00:13:17	2017-05-03 00:13:17	0
127573	2	21	0	ctrost@newseum.org	2017-05-22 16:30:51	2017-05-22 17:36:21	0
127573	2	25	0	ctrost@newseum.org	2017-05-27 00:56:23	2017-05-27 01:21:24	0
127573	1	26	0	ctrost@newseum.org	2017-06-04 22:49:09	2017-06-04 22:49:09	0
127573	1	35	0	ctrost@newseum.org	2017-06-17 13:18:52	2017-06-17 13:18:52	0
127573	1	36	0	ctrost@newseum.org	2017-06-18 13:28:27	2017-06-18 13:28:27	0
127573	1	40	0	ctrost@newseum.org	2017-07-03 02:09:37	2017-07-03 02:09:37	0
127575	1	13	0	jothompson@newseum.org	2017-02-04 03:41:44	2017-02-04 03:41:44	0
129702	1	13	0	lkoromvokis@newshour.org	2017-02-04 17:28:14	2017-02-04 17:28:14	0
129719	1	13	0	hsreenivasan@newshour.org	2017-02-04 14:23:55	2017-02-04 14:23:55	0
129803	2	35	0	newsroom@whsv.com	2017-06-17 13:44:04	2017-06-17 13:44:04	0
130687	1	35	0	dchoquette@globeandmail.com	2017-06-17 13:56:56	2017-06-17 13:56:56	0
130687	1	49	0	dchoquette@globeandmail.com	2017-08-17 13:38:40	2017-08-17 13:38:40	0
130690	1	35	0	wcox@globeandmail.com	2017-06-17 16:11:24	2017-06-17 16:11:24	0
130692	1	26	0	mwhetstone@globeandmail.com	2017-06-04 22:29:53	2017-06-04 22:29:53	0
130692	1	35	0	mwhetstone@globeandmail.com	2017-06-17 14:55:53	2017-06-17 14:55:53	0
130692	1	36	0	mwhetstone@globeandmail.com	2017-06-18 10:31:14	2017-06-18 10:31:14	0
130692	1	49	0	mwhetstone@globeandmail.com	2017-08-17 15:24:24	2017-08-17 15:24:24	0
130694	1	26	0	nhassan@globeandmail.com	2017-06-05 07:40:42	2017-06-05 07:40:42	0
130696	1	26	0	apacienza@globeandmail.com	2017-06-04 21:12:26	2017-06-04 21:12:26	0
130699	1	26	0	pwaldie@globeandmail.com	2017-06-04 20:51:58	2017-06-04 20:51:58	0
130704	1	26	0	patrickwhite@globeandmail.com	2017-06-04 21:15:48	2017-06-04 21:15:48	0
130709	1	35	0	jibbitson@globeandmail.com	2017-06-17 16:51:38	2017-06-17 16:51:38	0
130712	1	35	0	msnider@globeandmail.com	2017-06-17 14:06:03	2017-06-17 14:06:03	0
130712	1	36	0	msnider@globeandmail.com	2017-06-18 12:40:45	2017-06-18 12:40:45	0
130712	1	47	0	msnider@globeandmail.com	2017-08-12 21:01:48	2017-08-12 21:01:48	0
130717	1	26	0	mmedley@globeandmail.com	2017-06-05 01:11:29	2017-06-05 01:11:29	0
130719	1	26	0	erenzetti@globeandmail.com	2017-06-04 20:55:23	2017-06-04 20:55:23	0
130719	2	35	0	erenzetti@globeandmail.com	2017-06-17 15:03:27	2017-06-17 15:03:28	0
130720	1	35	0	ibrown@globeandmail.com	2017-06-17 13:53:54	2017-06-17 13:53:54	0
130720	1	36	0	ibrown@globeandmail.com	2017-06-18 09:44:28	2017-06-18 09:44:28	0
130720	1	47	0	ibrown@globeandmail.com	2017-08-13 17:32:24	2017-08-13 17:32:24	0
130726	2	26	0	zbielski@globeandmail.com	2017-06-04 20:56:59	2017-06-04 20:56:59	0
130726	2	35	0	zbielski@globeandmail.com	2017-06-17 13:52:46	2017-06-17 13:52:47	0
130726	1	49	0	zbielski@globeandmail.com	2017-08-17 15:01:11	2017-08-17 15:01:11	0
130732	1	26	0	jbradshaw@globeandmail.com	2017-06-04 21:19:56	2017-06-04 21:19:56	0
130735	1	26	0	ktaylor@globeandmail.com	2017-06-04 21:57:01	2017-06-04 21:57:01	0
130735	2	35	0	ktaylor@globeandmail.com	2017-06-17 21:26:43	2017-06-17 21:26:44	0
131114	1	26	0	voicers@edit.nydailynews.com	2017-06-05 02:12:48	2017-06-05 02:12:48	0
131114	1	35	0	voicers@edit.nydailynews.com	2017-06-17 22:33:32	2017-06-17 22:33:32	0
131114	1	40	0	voicers@edit.nydailynews.com	2017-07-03 10:57:24	2017-07-03 10:57:24	0
131114	1	47	0	voicers@edit.nydailynews.com	2017-08-13 01:31:54	2017-08-13 01:31:54	0
131116	1	26	0	tpeck@edit.nydailynews.com	2017-06-04 21:32:05	2017-06-04 21:32:05	0
131118	2	40	0	abrowne@edit.nydailynews.com	2017-07-02 18:11:20	2017-07-02 18:28:03	0
131118	1	47	0	abrowne@edit.nydailynews.com	2017-08-12 21:19:19	2017-08-12 21:19:19	0
131118	1	53	0	abrowne@edit.nydailynews.com	2017-09-19 21:16:25	2017-09-19 21:16:25	0
131120	1	26	0	jgreenman@nydailynews.com	2017-06-04 20:54:30	2017-06-04 20:54:30	0
131133	1	26	0	ndillon@edit.nydailynews.com	2017-06-05 02:05:25	2017-06-05 02:05:25	0
131186	1	25	0	steve.wick@newsday.com	2017-05-27 13:33:03	2017-05-27 13:33:03	0
131186	1	26	0	steve.wick@newsday.com	2017-06-04 20:54:07	2017-06-04 20:54:07	0
131194	1	25	0	tom.beer@newsday.com	2017-05-27 14:18:29	2017-05-27 14:18:29	0
131196	1	25	0	delder@newsday.com	2017-05-27 14:17:51	2017-05-27 14:17:51	0
131196	1	26	0	delder@newsday.com	2017-06-04 23:23:04	2017-06-04 23:23:04	0
131200	1	25	0	chau.lam@newsday.com	2017-05-27 13:15:55	2017-05-27 13:15:55	0
131202	1	26	0	dan.janison@newsday.com	2017-06-04 21:26:57	2017-06-04 21:26:57	0
131206	1	25	0	john.riley@newsday.com	2017-05-27 14:24:02	2017-05-27 14:24:02	0
131210	1	25	0	mark.harrington@newsday.com	2017-05-27 13:44:56	2017-05-27 13:44:56	0
131210	1	26	0	mark.harrington@newsday.com	2017-06-04 23:26:40	2017-06-04 23:26:40	0
131213	1	25	0	michael.dobie@newsday.com	2017-05-27 16:18:31	2017-05-27 16:18:31	0
131213	1	26	0	michael.dobie@newsday.com	2017-06-04 23:47:37	2017-06-04 23:47:37	0
131225	1	25	0	jessica.damiano@newsday.com	2017-05-28 13:06:36	2017-05-28 13:06:36	0
131225	1	26	0	jessica.damiano@newsday.com	2017-06-05 00:02:31	2017-06-05 00:02:31	0
131233	1	25	0	joie.tyrrell@newsday.com	2017-05-27 13:39:04	2017-05-27 13:39:04	0
131235	1	25	0	william.murphy@newsday.com	2017-05-27 15:18:16	2017-05-27 15:18:16	0
131235	1	26	0	william.murphy@newsday.com	2017-06-04 21:00:48	2017-06-04 21:00:48	0
131236	1	26	0	zachary.dowdy@newsday.com	2017-06-05 03:00:35	2017-06-05 03:00:35	0
131240	1	26	0	emilio.guerra@newsday.com	2017-06-04 22:58:12	2017-06-04 22:58:12	0
131243	1	26	0	tbrune@newsday.com	2017-06-04 21:52:36	2017-06-04 21:52:36	0
131246	1	25	0	kathleen.kerr@newsday.com	2017-05-27 14:22:19	2017-05-27 14:22:19	0
131250	1	25	0	glenn.gamboa@newsday.com	2017-05-27 17:43:27	2017-05-27 17:43:27	0
131935	1	13	0	mlythcott@chicagotribune.com	2017-02-04 23:07:34	2017-02-04 23:07:34	0
131956	1	13	0	gwong@chicagotribune.com	2017-02-04 18:31:27	2017-02-04 18:31:27	0
132062	1	35	0	dahl@globe.com	2017-06-19 16:48:26	2017-06-19 16:48:26	0
132062	1	47	0	dahl@globe.com	2017-08-12 19:57:31	2017-08-12 19:57:31	0
132063	1	35	0	jtuohey@globe.com	2017-06-17 16:50:17	2017-06-17 16:50:17	0
132064	1	35	0	jpage@globe.com	2017-06-17 18:53:09	2017-06-17 18:53:09	0
132065	1	47	0	larry.edelman@globe.com	2017-08-12 19:57:32	2017-08-12 19:57:32	0
132067	2	35	0	tuite@globe.com	2017-06-17 19:09:11	2017-06-18 15:36:46	0
132067	2	53	0	tuite@globe.com	2017-09-19 22:55:09	2017-09-19 23:12:13	0
132070	2	26	0	michael.brodeur@globe.com	2017-06-04 22:38:55	2017-06-04 22:38:56	0
132070	1	35	0	michael.brodeur@globe.com	2017-06-17 16:48:30	2017-06-17 16:48:30	0
132071	1	19	0	tburr@globe.com	2017-05-03 04:55:21	2017-05-03 04:55:21	0
132071	2	35	0	tburr@globe.com	2017-06-17 19:20:10	2017-06-19 20:11:30	0
132071	1	47	0	tburr@globe.com	2017-08-12 20:30:10	2017-08-12 20:30:10	0
132071	1	49	0	tburr@globe.com	2017-08-17 14:59:37	2017-08-17 14:59:37	0
132071	1	53	0	tburr@globe.com	2017-09-20 00:20:45	2017-09-20 00:20:45	0
132071	1	54	0	tburr@globe.com	2017-09-23 11:51:55	2017-09-23 11:51:55	0
132073	1	19	0	isobel.english@globe.com	2017-05-03 18:16:53	2017-05-03 18:16:53	0
132073	1	26	0	isobel.english@globe.com	2017-06-04 21:27:00	2017-06-04 21:27:00	0
132073	1	35	0	isobel.english@globe.com	2017-06-17 18:33:22	2017-06-17 18:33:22	0
132073	1	49	0	isobel.english@globe.com	2017-08-17 14:04:10	2017-08-17 14:04:10	0
132073	1	53	0	isobel.english@globe.com	2017-09-20 02:55:31	2017-09-20 02:55:31	0
132073	1	54	0	isobel.english@globe.com	2017-09-23 14:36:28	2017-09-23 14:36:28	0
132076	1	26	0	gilbert@globe.com	2017-06-04 22:35:07	2017-06-04 22:35:07	0
132076	1	35	0	gilbert@globe.com	2017-06-17 18:23:19	2017-06-17 18:23:19	0
132079	1	19	0	makishima@globe.com	2017-05-03 04:55:53	2017-05-03 04:55:53	0
132079	1	35	0	makishima@globe.com	2017-06-17 17:47:20	2017-06-17 17:47:20	0
132079	1	49	0	makishima@globe.com	2017-08-17 15:11:08	2017-08-17 15:11:08	0
132082	1	19	0	shanahan@globe.com	2017-05-03 10:32:58	2017-05-03 10:32:58	0
132084	1	35	0	bteitell@globe.com	2017-06-17 15:34:05	2017-06-17 15:34:05	0
132084	1	53	0	bteitell@globe.com	2017-09-19 23:07:12	2017-09-19 23:07:12	0
132084	1	54	0	bteitell@globe.com	2017-09-23 02:35:42	2017-09-23 02:35:42	0
132089	1	19	0	lehigh@globe.com	2017-05-03 10:09:05	2017-05-03 10:09:05	0
132092	1	35	0	melissa.schorr@globe.com	2017-06-17 15:30:46	2017-06-17 15:30:46	0
132092	1	49	0	melissa.schorr@globe.com	2017-08-17 16:10:02	2017-08-17 16:10:02	0
132092	2	53	0	melissa.schorr@globe.com	2017-09-20 00:01:06	2017-09-20 00:02:57	0
132092	2	54	0	melissa.schorr@globe.com	2017-09-23 11:43:50	2017-09-23 11:44:41	0
132094	1	26	0	daniel.adams@globe.com	2017-06-04 21:08:18	2017-06-04 21:08:18	0
132094	2	35	0	daniel.adams@globe.com	2017-06-17 15:27:16	2017-06-17 15:30:13	0
132094	1	49	0	daniel.adams@globe.com	2017-08-17 13:41:38	2017-08-17 13:41:38	0
132095	1	19	0	h_bray@globe.com	2017-05-03 14:56:07	2017-05-03 14:56:07	0
132095	1	26	0	h_bray@globe.com	2017-06-05 13:15:46	2017-06-05 13:15:46	0
132096	1	21	0	caffrey@globe.com	2017-05-25 14:35:35	2017-05-25 14:35:35	0
132098	1	19	0	kconti@globe.com	2017-05-03 13:01:12	2017-05-03 13:01:12	0
132098	1	25	0	kconti@globe.com	2017-05-30 20:42:52	2017-05-30 20:42:52	0
132101	1	49	0	kjohnston@globe.com	2017-08-17 15:04:23	2017-08-17 15:04:23	0
132104	1	35	0	priyanka.mccluskey@globe.com	2017-06-17 16:30:47	2017-06-17 16:30:47	0
132106	1	26	0	cneedham@globe.com	2017-06-04 22:41:50	2017-06-04 22:41:50	0
132107	1	19	0	pfeiffer@globe.com	2017-05-03 11:58:49	2017-05-03 11:58:49	0
132107	1	25	0	pfeiffer@globe.com	2017-05-30 21:01:09	2017-05-30 21:01:09	0
132109	1	35	0	mwoolhouse@globe.com	2017-06-17 19:34:08	2017-06-17 19:34:08	0
132111	1	19	0	steve.annear@globe.com	2017-05-03 13:51:02	2017-05-03 13:51:02	0
132111	2	35	0	steve.annear@globe.com	2017-06-17 16:50:31	2017-06-17 16:50:31	0
132111	1	49	0	steve.annear@globe.com	2017-08-17 13:47:21	2017-08-17 13:47:21	0
132116	1	26	0	kathleen.mcleod@globe.com	2017-06-04 21:42:55	2017-06-04 21:42:55	0
132117	1	25	0	christina.prignano@globe.com	2017-05-30 21:50:53	2017-05-30 21:50:53	0
132117	2	35	0	christina.prignano@globe.com	2017-06-17 17:47:22	2017-06-17 17:52:00	0
132117	1	47	0	christina.prignano@globe.com	2017-08-12 19:58:07	2017-08-12 19:58:07	0
132117	2	49	0	christina.prignano@globe.com	2017-08-17 13:41:45	2017-08-17 13:42:40	0
132118	1	21	0	jaclyn.reiss@globe.com	2017-05-25 13:22:25	2017-05-25 13:22:25	0
132119	1	19	0	alex.kingsbury@globe.com	2017-05-03 11:22:22	2017-05-03 11:22:22	0
132119	1	26	0	alex.kingsbury@globe.com	2017-06-04 21:52:39	2017-06-04 21:52:39	0
132119	1	35	0	alex.kingsbury@globe.com	2017-06-17 15:56:20	2017-06-17 15:56:20	0
132119	1	49	0	alex.kingsbury@globe.com	2017-08-17 13:42:24	2017-08-17 13:42:24	0
132119	1	53	0	alex.kingsbury@globe.com	2017-09-20 01:28:04	2017-09-20 01:28:04	0
132123	1	19	0	malcolm.gay@globe.com	2017-05-03 11:44:41	2017-05-03 11:44:41	0
132123	1	21	0	malcolm.gay@globe.com	2017-05-25 16:07:15	2017-05-25 16:07:15	0
132123	1	26	0	malcolm.gay@globe.com	2017-06-04 21:53:02	2017-06-04 21:53:02	0
132123	1	35	0	malcolm.gay@globe.com	2017-06-17 14:21:57	2017-06-17 14:21:57	0
132123	1	53	0	malcolm.gay@globe.com	2017-09-20 00:31:05	2017-09-20 00:31:05	0
132125	2	19	0	esweeney@globe.com	2017-05-03 12:22:46	2017-05-03 12:22:48	0
132125	1	35	0	esweeney@globe.com	2017-06-17 14:03:03	2017-06-17 14:03:03	0
132125	1	49	0	esweeney@globe.com	2017-08-17 13:43:31	2017-08-17 13:43:31	0
132126	1	35	0	eileen.woods@globe.com	2017-06-17 21:36:24	2017-06-17 21:36:24	0
132126	1	49	0	eileen.woods@globe.com	2017-08-17 13:40:44	2017-08-17 13:40:44	0
132128	1	35	0	michael.fitzgerald@globe.com	2017-06-17 22:15:38	2017-06-17 22:15:38	0
132129	1	35	0	stacey.myers@globe.com	2017-06-17 16:42:26	2017-06-17 16:42:26	0
132132	1	19	0	shira.center@globe.com	2017-05-03 11:25:21	2017-05-03 11:25:21	0
132132	1	35	0	shira.center@globe.com	2017-06-18 16:44:52	2017-06-18 16:44:52	0
132133	1	35	0	cullen@globe.com	2017-06-17 21:35:34	2017-06-17 21:35:34	0
132134	1	21	0	farragher@globe.com	2017-05-25 10:50:33	2017-05-25 10:50:33	0
132134	1	26	0	farragher@globe.com	2017-06-04 21:12:57	2017-06-04 21:12:57	0
132134	1	35	0	farragher@globe.com	2017-06-17 15:33:07	2017-06-17 15:33:07	0
132134	1	47	0	farragher@globe.com	2017-08-12 21:20:47	2017-08-12 21:20:47	0
132134	1	49	0	farragher@globe.com	2017-08-17 15:35:25	2017-08-17 15:35:25	0
132134	1	53	0	farragher@globe.com	2017-09-20 02:03:27	2017-09-20 02:03:27	0
132134	1	54	0	farragher@globe.com	2017-09-23 08:31:38	2017-09-23 08:31:38	0
132138	1	21	0	mbernstein@globe.com	2017-05-25 13:09:56	2017-05-25 13:09:56	0
132138	1	54	0	mbernstein@globe.com	2017-09-25 10:44:31	2017-09-25 10:44:31	0
132139	1	25	0	ellen.clegg@globe.com	2017-05-30 19:25:50	2017-05-30 19:25:50	0
132139	1	47	0	ellen.clegg@globe.com	2017-08-12 20:10:40	2017-08-12 20:10:40	0
132140	1	19	0	marcela.garcia@globe.com	2017-05-03 09:57:26	2017-05-03 09:57:26	0
132142	1	35	0	mark.pothier@globe.com	2017-06-17 18:38:09	2017-06-17 18:38:09	0
132144	2	21	0	abelson@globe.com	2017-05-25 14:10:35	2017-05-25 14:11:26	0
132146	1	26	0	muther@globe.com	2017-06-04 22:46:22	2017-06-04 22:46:22	0
132146	1	47	0	muther@globe.com	2017-08-12 21:23:39	2017-08-12 21:23:39	0
132147	1	53	0	taylor.delench@globe.com	2017-09-19 23:38:45	2017-09-19 23:38:45	0
132148	1	54	0	anush.elbakyan@globe.com	2017-09-23 02:49:07	2017-09-23 02:49:07	0
132150	1	26	0	christopher.rowland@globe.com	2017-06-04 21:35:58	2017-06-04 21:35:58	0
132150	1	35	0	christopher.rowland@globe.com	2017-06-17 15:57:35	2017-06-17 15:57:35	0
132150	1	47	0	christopher.rowland@globe.com	2017-08-12 20:39:28	2017-08-12 20:39:28	0
134037	1	47	0	almiller@indiana.edu	2017-08-12 20:36:17	2017-08-12 20:36:17	0
134038	1	35	0	ardizzon@indiana.edu	2017-06-17 14:23:24	2017-06-17 14:23:24	0
134038	1	47	0	ardizzon@indiana.edu	2017-08-12 20:32:42	2017-08-12 20:32:42	0
134040	1	35	0	stanton@indiana.edu	2017-06-18 06:30:54	2017-06-18 06:30:54	0
134040	2	47	0	stanton@indiana.edu	2017-08-12 21:37:22	2017-08-12 21:44:51	0
134429	2	47	0	adam.bradley@colorado.edu	2017-08-12 20:50:06	2017-08-12 22:57:57	0
134429	1	53	0	adam.bradley@colorado.edu	2017-09-19 21:08:25	2017-09-19 21:08:25	0
134431	1	19	0	jeffrey.deshell@colorado.edu	2017-05-03 12:30:53	2017-05-03 12:30:53	0
134431	1	21	0	jeffrey.deshell@colorado.edu	2017-05-25 11:51:00	2017-05-25 11:51:00	0
134431	1	26	0	jeffrey.deshell@colorado.edu	2017-06-04 21:48:15	2017-06-04 21:48:15	0
134431	1	40	0	jeffrey.deshell@colorado.edu	2017-07-03 14:03:33	2017-07-03 14:03:33	0
134431	1	47	0	jeffrey.deshell@colorado.edu	2017-08-13 00:46:44	2017-08-13 00:46:44	0
134431	1	53	0	jeffrey.deshell@colorado.edu	2017-09-19 21:15:05	2017-09-19 21:15:05	0
134434	1	47	0	jason.gladstone@colorado.edu	2017-08-14 14:14:37	2017-08-14 14:14:37	0
134435	1	26	0	jeremy.green@colorado.edu	2017-06-05 02:26:16	2017-06-05 02:26:16	0
134435	2	53	0	jeremy.green@colorado.edu	2017-09-19 20:44:33	2017-09-19 20:44:44	0
134439	1	19	0	ruthellen.kocher@colorado.edu	2017-05-04 22:09:13	2017-05-04 22:09:13	0
134439	1	53	0	ruthellen.kocher@colorado.edu	2017-09-20 16:31:31	2017-09-20 16:31:31	0
134441	1	26	0	ed.rivers@colorado.edu	2017-06-04 23:41:00	2017-06-04 23:41:00	0
134441	1	35	0	ed.rivers@colorado.edu	2017-07-02 19:33:26	2017-07-02 19:33:26	0
134443	1	19	0	elisabeth.sheffield@colorado.edu	2017-05-03 05:01:20	2017-05-03 05:01:20	0
134443	1	21	0	elisabeth.sheffield@colorado.edu	2017-05-25 16:16:58	2017-05-25 16:16:58	0
134443	1	26	0	elisabeth.sheffield@colorado.edu	2017-06-05 05:02:36	2017-06-05 05:02:36	0
134443	1	35	0	elisabeth.sheffield@colorado.edu	2017-06-17 19:21:35	2017-06-17 19:21:35	0
134443	1	40	0	elisabeth.sheffield@colorado.edu	2017-07-02 23:41:05	2017-07-02 23:41:05	0
134443	1	47	0	elisabeth.sheffield@colorado.edu	2017-08-15 01:19:43	2017-08-15 01:19:43	0
134443	1	49	0	elisabeth.sheffield@colorado.edu	2017-08-17 14:48:04	2017-08-17 14:48:04	0
136582	1	19	0	josecole@indiana.edu	2017-05-03 15:33:35	2017-05-03 15:33:35	0
136582	1	21	0	josecole@indiana.edu	2017-05-22 18:16:30	2017-05-22 18:16:30	0
136582	1	25	0	josecole@indiana.edu	2017-05-28 04:49:42	2017-05-28 04:49:42	0
136582	1	26	0	josecole@indiana.edu	2017-06-04 23:27:37	2017-06-04 23:27:37	0
136582	2	35	0	josecole@indiana.edu	2017-06-17 18:56:14	2017-07-14 00:39:55	0
136582	1	36	0	josecole@indiana.edu	2017-06-18 22:29:04	2017-06-18 22:29:04	0
136582	1	40	0	josecole@indiana.edu	2017-07-05 02:58:04	2017-07-05 02:58:04	0
136582	1	47	0	josecole@indiana.edu	2017-08-13 01:56:49	2017-08-13 01:56:49	0
136582	1	49	0	josecole@indiana.edu	2017-08-17 13:49:45	2017-08-17 13:49:45	0
136582	1	50	0	josecole@indiana.edu	2017-09-09 14:15:55	2017-09-09 14:15:55	0
136582	1	53	0	josecole@indiana.edu	2017-09-19 21:27:26	2017-09-19 21:27:26	0
136582	1	54	0	josecole@indiana.edu	2017-09-23 13:43:28	2017-09-23 13:43:28	0
136583	1	25	0	mtconway@indiana.edu	2017-05-28 05:43:19	2017-05-28 05:43:19	0
136583	1	35	0	mtconway@indiana.edu	2017-06-18 11:19:53	2017-06-18 11:19:53	0
136583	1	47	0	mtconway@indiana.edu	2017-08-12 23:07:15	2017-08-12 23:07:15	0
136584	1	35	0	kbfrench@indiana.edu	2017-06-17 13:48:09	2017-06-17 13:48:09	0
136584	1	50	0	kbfrench@indiana.edu	2017-09-11 20:25:12	2017-09-11 20:25:12	0
136585	1	35	0	thfrench@indiana.edu	2017-06-17 14:34:42	2017-06-17 14:34:42	0
136585	1	47	0	thfrench@indiana.edu	2017-08-13 16:34:40	2017-08-13 16:34:40	0
136586	1	35	0	kang60@indiana.edu	2017-06-17 17:17:06	2017-06-17 17:17:06	0
136586	2	47	0	kang60@indiana.edu	2017-08-14 15:00:00	2017-08-14 15:00:05	0
136588	1	35	0	bllayton@indiana.edu	2017-06-17 14:37:31	2017-06-17 14:37:31	0
136592	1	35	0	shrmart@indiana.edu	2017-06-17 13:58:07	2017-06-17 13:58:07	0
136594	2	35	0	emonagha@indiana.edu	2017-06-17 13:52:18	2017-07-01 15:42:07	0
136594	1	47	0	emonagha@indiana.edu	2017-08-12 20:48:08	2017-08-12 20:48:08	0
136597	1	35	0	rparames@indiana.edu	2017-06-17 14:21:38	2017-06-17 14:21:38	0
136599	1	47	0	yang223@indiana.edu	2017-08-12 20:07:45	2017-08-12 20:07:45	0
136601	1	19	0	brownt@indiana.edu	2017-05-03 10:38:52	2017-05-03 10:38:52	0
136601	1	21	0	brownt@indiana.edu	2017-05-22 18:39:06	2017-05-22 18:39:06	0
136601	2	35	0	brownt@indiana.edu	2017-06-17 14:20:03	2017-06-17 14:20:03	0
136601	2	36	0	brownt@indiana.edu	2017-06-18 01:39:44	2017-06-18 01:39:47	0
136601	1	49	0	brownt@indiana.edu	2017-08-17 13:53:12	2017-08-17 13:53:12	0
136601	1	50	0	brownt@indiana.edu	2017-09-09 16:11:53	2017-09-09 16:11:53	0
136601	2	54	0	brownt@indiana.edu	2017-09-23 11:48:17	2017-09-23 11:48:39	0
136602	1	21	0	dilts@indiana.edu	2017-05-22 23:07:51	2017-05-22 23:07:51	0
136603	1	19	0	drew@indiana.edu	2017-05-05 18:31:03	2017-05-05 18:31:03	0
136603	1	47	0	drew@indiana.edu	2017-08-13 21:36:43	2017-08-13 21:36:43	0
136606	2	35	0	nord@indiana.edu	2017-06-17 14:41:54	2017-06-17 14:49:24	0
136606	1	47	0	nord@indiana.edu	2017-08-12 20:28:40	2017-08-12 20:28:40	0
136988	1	40	0	christopher.braider@colorado.edu	2017-07-02 13:05:45	2017-07-02 13:05:45	0
136988	1	47	0	christopher.braider@colorado.edu	2017-08-13 13:19:26	2017-08-13 13:19:26	0
136988	1	53	0	christopher.braider@colorado.edu	2017-09-20 02:22:58	2017-09-20 02:22:58	0
136989	1	19	0	shu-ling.berggreen@colorado.edu	2017-05-03 05:02:12	2017-05-03 05:02:12	0
136989	1	47	0	shu-ling.berggreen@colorado.edu	2017-08-14 03:03:53	2017-08-14 03:03:53	0
136989	1	53	0	shu-ling.berggreen@colorado.edu	2017-09-20 03:12:41	2017-09-20 03:12:41	0
136990	1	21	0	jeffrey.browne@colorado.edu	2017-05-25 17:47:47	2017-05-25 17:47:47	0
136990	1	40	0	jeffrey.browne@colorado.edu	2017-07-02 23:10:47	2017-07-02 23:10:47	0
136991	1	53	0	andrew.calabrese@colorado.edu	2017-09-20 04:13:26	2017-09-20 04:13:26	0
136994	1	21	0	nabil.echchaibi@colorado.edu	2017-05-25 13:06:32	2017-05-25 13:06:32	0
136996	1	47	0	stewart.hoover@colorado.edu	2017-08-13 14:54:28	2017-08-13 14:54:28	0
136996	1	53	0	stewart.hoover@colorado.edu	2017-09-20 03:00:08	2017-09-20 03:00:08	0
136997	1	19	0	stephen.jones@colorado.edu	2017-05-03 14:44:00	2017-05-03 14:44:00	0
136997	1	35	0	stephen.jones@colorado.edu	2017-06-19 15:04:01	2017-06-19 15:04:01	0
136997	1	40	0	stephen.jones@colorado.edu	2017-07-05 21:02:40	2017-07-05 21:02:40	0
136997	1	47	0	stephen.jones@colorado.edu	2017-08-14 16:48:14	2017-08-14 16:48:14	0
136997	1	53	0	stephen.jones@colorado.edu	2017-09-20 17:58:49	2017-09-20 17:58:49	0
136998	1	47	0	hunshik.kim@colorado.edu	2017-08-13 04:34:51	2017-08-13 04:34:51	0
136999	1	40	0	kelty.logan@colorado.edu	2017-07-02 13:08:21	2017-07-02 13:08:21	0
136999	1	47	0	kelty.logan@colorado.edu	2017-08-13 04:39:39	2017-08-13 04:39:39	0
136999	1	53	0	kelty.logan@colorado.edu	2017-09-20 14:04:17	2017-09-20 14:04:17	0
137000	1	19	0	michael.kodas@colorado.edu	2017-05-03 14:23:39	2017-05-03 14:23:39	0
137000	1	35	0	michael.kodas@colorado.edu	2017-06-17 17:48:47	2017-06-17 17:48:47	0
137000	1	40	0	michael.kodas@colorado.edu	2017-07-03 13:24:46	2017-07-03 13:24:46	0
137000	1	49	0	michael.kodas@colorado.edu	2017-08-17 18:06:47	2017-08-17 18:06:47	0
137000	1	53	0	michael.kodas@colorado.edu	2017-09-20 15:01:57	2017-09-20 15:01:57	0
137001	1	19	0	mike.mcdevitt@colorado.edu	2017-05-03 17:37:04	2017-05-03 17:37:04	0
137001	1	21	0	mike.mcdevitt@colorado.edu	2017-05-26 17:59:54	2017-05-26 17:59:54	0
137001	1	47	0	mike.mcdevitt@colorado.edu	2017-08-14 23:39:49	2017-08-14 23:39:49	0
137002	1	19	0	mcleanp@colorado.edu	2017-05-03 05:01:29	2017-05-03 05:01:29	0
137002	1	40	0	mcleanp@colorado.edu	2017-07-03 05:32:48	2017-07-03 05:32:48	0
137002	1	47	0	mcleanp@colorado.edu	2017-08-14 23:24:58	2017-08-14 23:24:58	0
137002	1	53	0	mcleanp@colorado.edu	2017-09-21 21:28:27	2017-09-21 21:28:27	0
137003	1	40	0	marguerite.moritz@colorado.edu	2017-07-02 14:56:33	2017-07-02 14:56:33	0
137003	1	47	0	marguerite.moritz@colorado.edu	2017-08-15 14:24:24	2017-08-15 14:24:24	0
137003	1	53	0	marguerite.moritz@colorado.edu	2017-09-20 01:47:45	2017-09-20 01:47:45	0
137004	1	21	0	janice.peck@colorado.edu	2017-05-25 12:50:48	2017-05-25 12:50:48	0
137004	1	47	0	janice.peck@colorado.edu	2017-08-15 14:31:36	2017-08-15 14:31:36	0
137005	1	19	0	kathleen.ryan@colorado.edu	2017-05-03 05:05:33	2017-05-03 05:05:33	0
137005	1	21	0	kathleen.ryan@colorado.edu	2017-05-25 22:05:49	2017-05-25 22:05:49	0
137005	1	40	0	kathleen.ryan@colorado.edu	2017-07-02 22:23:56	2017-07-02 22:23:56	0
137005	1	53	0	kathleen.ryan@colorado.edu	2017-09-20 04:21:11	2017-09-20 04:21:11	0
137006	1	19	0	elizabeth.skewes@colorado.edu	2017-05-03 13:47:46	2017-05-03 13:47:46	0
137006	1	21	0	elizabeth.skewes@colorado.edu	2017-05-25 18:53:29	2017-05-25 18:53:29	0
137006	1	40	0	elizabeth.skewes@colorado.edu	2017-07-03 20:34:37	2017-07-03 20:34:37	0
137007	1	21	0	david.slayden@colorado.edu	2017-05-31 22:10:50	2017-05-31 22:10:50	0
137008	1	53	0	rick.stevens@colorado.edu	2017-09-20 05:26:03	2017-09-20 05:26:03	0
137010	1	40	0	paul.voakes@colorado.edu	2017-07-02 14:06:30	2017-07-02 14:06:30	0
137010	1	47	0	paul.voakes@colorado.edu	2017-08-15 14:16:52	2017-08-15 14:16:52	0
137012	2	21	0	jan.whitt@colorado.edu	2017-05-25 14:54:10	2017-05-25 14:54:23	0
137012	1	40	0	jan.whitt@colorado.edu	2017-07-03 16:02:16	2017-07-03 16:02:16	0
137012	2	47	0	jan.whitt@colorado.edu	2017-08-14 06:15:06	2017-08-14 06:15:29	0
137752	1	50	0	tgunning@uchicago.edu	2017-09-10 12:49:45	2017-09-10 12:49:45	0
137753	1	42	0	judyh@uchicago.edu	2017-07-15 04:01:33	2017-07-15 04:01:33	0
139980	2	35	0	chanchat@spot.colorado.edu	2017-06-20 05:48:44	2017-06-20 18:14:09	0
143224	1	35	0	iupress@indiana.edu	2017-06-19 11:26:06	2017-06-19 11:26:06	0
143224	1	47	0	iupress@indiana.edu	2017-08-14 11:28:09	2017-08-14 11:28:09	0
143228	1	47	0	sajacobi@indiana.edu	2017-08-14 12:32:52	2017-08-14 12:32:52	0
143229	1	35	0	regoli@indiana.edu	2017-06-18 17:23:24	2017-06-18 17:23:24	0
143230	2	35	0	tboardma@indiana.edu	2017-06-19 14:01:59	2017-06-19 14:02:02	0
143230	2	47	0	tboardma@indiana.edu	2017-08-14 15:10:29	2017-08-14 19:04:19	0
143232	1	35	0	msybert@indiana.edu	2017-07-03 15:53:40	2017-07-03 15:53:40	0
143232	1	47	0	msybert@indiana.edu	2017-08-14 12:40:34	2017-08-14 12:40:34	0
143271	1	42	0	csherry@chicagoreviewpress.com	2017-07-15 13:55:48	2017-07-15 13:55:48	0
143278	2	42	0	ehornor@chicagoreviewpress.com	2017-07-17 15:13:11	2017-07-17 15:13:11	0
159983	1	50	0	whlee@iupui.edu	2017-09-09 00:19:56	2017-09-09 00:19:56	0
164556	1	35	0	gtp@colorado.edu	2017-06-28 15:09:44	2017-06-28 15:09:44	0
164556	1	53	0	gtp@colorado.edu	2017-09-20 15:03:41	2017-09-20 15:03:41	0
165334	2	13	0	ub-news@buffalo.edu	2017-02-04 10:16:58	2017-02-04 10:35:21	0
185542	2	47	0	nrpace@colorado.edu	2017-08-12 16:36:22	2017-08-12 16:36:43	0
213152	1	47	0	news@myfox47.com	2017-08-12 16:47:35	2017-08-12 16:47:35	0
213178	2	35	0	news@wdtv.com	2017-06-18 17:15:55	2017-06-19 01:35:49	0
213522	1	26	0	skraemer@newscenter1.com	2017-06-05 00:36:53	2017-06-05 00:36:53	0
214333	1	26	0	feedback@globes.co.il	2017-06-06 07:44:12	2017-06-06 07:44:12	0
214910	2	40	0	aabhutta@indiana.edu	2017-07-02 12:27:48	2017-07-18 18:45:09	0
214926	1	21	0	micasey@indiana.edu	2017-05-23 15:11:26	2017-05-23 15:11:26	0
214930	1	49	0	lc37@indiana.edu	2017-08-22 14:42:00	2017-08-22 14:42:00	0
214939	1	49	0	djcran@indiana.edu	2017-08-20 14:28:31	2017-08-20 14:28:31	0
214981	1	49	0	hagara@indiana.edu	2017-08-20 14:20:34	2017-08-20 14:20:34	0
215006	1	40	0	skuebler@indiana.edu	2017-07-02 22:20:16	2017-07-02 22:20:16	0
215019	1	21	0	jluciano@indiana.edu	2017-05-24 15:20:42	2017-05-24 15:20:42	0
216779	1	41	0	gaineys@iupui.edu	2017-07-08 20:30:47	2017-07-08 20:30:47	0
216779	1	50	0	gaineys@iupui.edu	2017-09-08 16:52:57	2017-09-08 16:52:57	0
216795	1	21	0	milliel@iupui.edu	2017-05-23 20:42:54	2017-05-23 20:42:54	0
216795	1	53	0	milliel@iupui.edu	2017-09-20 12:42:07	2017-09-20 12:42:07	0
222454	1	35	0	content@mobiadnews.com	2017-06-18 17:14:31	2017-06-18 17:14:31	0
222454	1	41	0	content@mobiadnews.com	2017-07-08 15:44:12	2017-07-08 15:44:12	0
222454	2	45	0	content@mobiadnews.com	2017-07-29 20:07:04	2017-07-31 16:26:49	0
222581	1	40	0	News@securitygeeks.net	2017-07-02 18:35:50	2017-07-02 18:35:50	0
222581	1	47	0	News@securitygeeks.net	2017-08-12 17:23:57	2017-08-12 17:23:57	0
222581	1	49	0	News@securitygeeks.net	2017-08-21 16:02:05	2017-08-21 16:02:05	0
222581	1	50	0	News@securitygeeks.net	2017-09-09 03:19:33	2017-09-09 03:19:33	0
222581	1	53	0	News@securitygeeks.net	2017-09-20 05:44:59	2017-09-20 05:44:59	0
222581	1	54	0	News@securitygeeks.net	2017-09-23 13:40:29	2017-09-23 13:40:29	0
222800	1	24	0	news@tradewindsnews.com	2017-05-26 12:52:35	2017-05-26 12:52:35	0
222800	2	40	0	news@tradewindsnews.com	2017-07-02 18:26:05	2017-07-02 21:00:17	0
222800	1	47	0	news@tradewindsnews.com	2017-08-12 21:51:09	2017-08-12 21:51:09	0
222800	1	53	0	news@tradewindsnews.com	2017-09-20 07:03:46	2017-09-20 07:03:46	0
222975	1	24	0	Gilbert.Ngabo@metronews.ca	2017-05-30 19:33:04	2017-05-30 19:33:04	0
222975	1	26	0	Gilbert.Ngabo@metronews.ca	2017-06-05 13:10:13	2017-06-05 13:10:13	0
222975	1	35	0	Gilbert.Ngabo@metronews.ca	2017-06-19 13:34:28	2017-06-19 13:34:28	0
222975	1	47	0	Gilbert.Ngabo@metronews.ca	2017-08-21 13:46:38	2017-08-21 13:46:38	0
223330	1	47	0	snolen@globeandmail.com	2017-08-12 17:15:16	2017-08-12 17:15:16	0
223600	1	47	0	cnelson@investmentnews.com	2017-08-12 17:51:12	2017-08-12 17:51:12	0
224340	1	35	0	curt.woodward@globe.com	2017-06-17 17:22:57	2017-06-17 17:22:57	0
224340	1	49	0	curt.woodward@globe.com	2017-08-17 13:42:22	2017-08-17 13:42:22	0
224340	1	53	0	curt.woodward@globe.com	2017-09-20 10:19:30	2017-09-20 10:19:30	0
224607	1	30	0	leim@indiana.edu	2017-06-11 18:47:49	2017-06-11 18:47:49	0
224612	2	27	0	luzhip@indiana.edu	2017-06-11 03:54:23	2017-06-11 03:54:25	0
224612	2	40	0	luzhip@indiana.edu	2017-07-02 20:20:58	2017-07-02 20:21:01	0
224612	1	50	0	luzhip@indiana.edu	2017-09-08 19:04:40	2017-09-08 19:04:40	0
224612	1	53	0	luzhip@indiana.edu	2017-09-20 07:10:16	2017-09-20 07:10:16	0
224617	1	35	0	ianmont@indiana.edu	2017-07-10 01:21:25	2017-07-10 01:21:25	0
224620	1	41	0	park433@indiana.edu	2017-07-10 09:16:06	2017-07-10 09:16:06	0
224620	1	47	0	park433@indiana.edu	2017-08-14 23:17:09	2017-08-14 23:17:09	0
224636	1	47	0	rcstees@indiana.edu	2017-08-13 19:36:41	2017-08-13 19:36:41	0
224650	1	41	0	xu56@indiana.edu	2017-07-09 09:54:28	2017-07-09 09:54:28	0
224653	1	40	0	yangzha@indiana.edu	2017-07-05 02:40:52	2017-07-05 02:40:52	0
224672	1	47	0	cldcolli@indiana.edu	2017-08-12 17:36:08	2017-08-12 17:36:08	0
224673	1	27	0	jcongrov@indiana.edu	2017-06-13 19:26:02	2017-06-13 19:26:02	0
224681	1	30	0	bedford@indiana.edu	2017-06-12 15:26:20	2017-06-12 15:26:20	0
224681	2	47	0	bedford@indiana.edu	2017-08-12 19:00:49	2017-08-12 19:01:03	0
224684	1	35	0	swbrown@indiana.edu	2017-06-20 15:32:17	2017-06-20 15:32:17	0
224684	1	47	0	swbrown@indiana.edu	2017-08-12 16:42:52	2017-08-12 16:42:52	0
224686	1	47	0	dadok@indiana.edu	2017-08-13 11:43:14	2017-08-13 11:43:14	0
224698	1	47	0	pamanoha@indiana.edu	2017-08-13 00:17:18	2017-08-13 00:17:18	0
224702	1	41	0	zhisu@indiana.edu	2017-07-09 02:01:16	2017-07-09 02:01:16	0
224702	1	47	0	zhisu@indiana.edu	2017-08-12 21:21:19	2017-08-12 21:21:19	0
224702	1	53	0	zhisu@indiana.edu	2017-09-21 21:30:18	2017-09-21 21:30:18	0
224709	1	47	0	nlevenbe@indiana.edu	2017-08-12 16:41:27	2017-08-12 16:41:27	0
225806	1	40	0	zpkilpat@colorado.edu	2017-07-02 13:57:21	2017-07-02 13:57:21	0
225806	2	47	0	zpkilpat@colorado.edu	2017-08-12 19:28:34	2017-08-14 16:52:14	0
225806	1	50	0	zpkilpat@colorado.edu	2017-09-08 22:13:18	2017-09-08 22:13:18	0
225806	2	53	0	zpkilpat@colorado.edu	2017-09-20 04:53:51	2017-09-20 04:54:54	0
236327	2	53	0	rida@cs.uchicago.edu	2017-09-20 12:57:51	2017-09-20 12:58:12	0
236333	1	35	0	donna@cs.uchicago.edu	2017-06-19 16:16:21	2017-06-19 16:16:21	0
236334	1	27	0	karin@cs.uchicago.edu	2017-06-12 19:13:48	2017-06-12 19:13:48	0
236334	1	29	0	karin@cs.uchicago.edu	2017-06-12 19:13:51	2017-06-12 19:13:51	0
236334	1	35	0	karin@cs.uchicago.edu	2017-06-19 15:27:19	2017-06-19 15:27:19	0
236334	1	47	0	karin@cs.uchicago.edu	2017-08-13 22:09:28	2017-08-13 22:09:28	0
236335	2	27	0	jdgarza@cs.uchicago.edu	2017-06-11 17:06:56	2017-06-12 14:05:09	0
236335	2	29	0	jdgarza@cs.uchicago.edu	2017-06-11 17:06:51	2017-06-12 14:05:07	0
236335	1	35	0	jdgarza@cs.uchicago.edu	2017-06-19 15:07:43	2017-06-19 15:07:43	0
236335	1	45	0	jdgarza@cs.uchicago.edu	2017-07-31 14:06:49	2017-07-31 14:06:49	0
236335	1	53	0	jdgarza@cs.uchicago.edu	2017-09-20 15:50:41	2017-09-20 15:50:41	0
236356	1	47	0	ken.anderson@colorado.edu	2017-08-12 19:19:55	2017-08-12 19:19:55	0
236364	2	53	0	xiao-chuan.cai@colorado.edu	2017-09-22 16:49:30	2017-09-23 01:07:13	0
236367	2	47	0	aaron.clauset@colorado.edu	2017-08-13 03:13:16	2017-08-13 03:13:23	0
236367	1	53	0	aaron.clauset@colorado.edu	2017-09-21 15:48:46	2017-09-21 15:48:46	0
236370	1	47	0	ann.eisenberg@colorado.edu	2017-08-14 04:32:45	2017-08-14 04:32:45	0
236371	1	40	0	michael.eisenberg@colorado.edu	2017-07-02 14:25:17	2017-07-02 14:25:17	0
236371	1	47	0	michael.eisenberg@colorado.edu	2017-08-12 21:46:13	2017-08-12 21:46:13	0
236371	1	53	0	michael.eisenberg@colorado.edu	2017-09-22 13:03:40	2017-09-22 13:03:40	0
236372	1	33	0	gerhard.fischer@colorado.edu	2017-06-15 14:03:39	2017-06-15 14:03:39	0
236372	1	47	0	gerhard.fischer@colorado.edu	2017-08-12 17:17:28	2017-08-12 17:17:28	0
236378	1	53	0	mdgross@colorado.edu	2017-09-22 17:46:10	2017-09-22 17:46:10	0
236383	1	47	0	david.hall@colorado.edu	2017-08-13 04:07:17	2017-08-13 04:07:17	0
236384	1	33	0	matthew.hammer@colorado.edu	2017-06-18 10:55:41	2017-06-18 10:55:41	0
236384	1	40	0	matthew.hammer@colorado.edu	2017-07-18 16:28:40	2017-07-18 16:28:40	0
236384	1	47	0	matthew.hammer@colorado.edu	2017-08-22 21:04:51	2017-08-22 21:04:51	0
236384	1	53	0	matthew.hammer@colorado.edu	2017-09-22 12:43:27	2017-09-22 12:43:27	0
236387	2	40	0	christoffer.heckman@colorado.edu	2017-07-03 14:08:14	2017-07-17 17:27:11	0
236387	1	47	0	christoffer.heckman@colorado.edu	2017-08-12 21:38:12	2017-08-12 21:38:12	0
236387	1	53	0	christoffer.heckman@colorado.edu	2017-09-22 12:55:22	2017-09-22 12:55:22	0
236389	1	53	0	elizabeth.jessup@colorado.edu	2017-09-20 15:23:34	2017-09-20 15:23:34	0
236394	1	30	0	clayton.lewis@colorado.edu	2017-06-16 07:21:49	2017-06-16 07:21:49	0
236394	1	33	0	clayton.lewis@colorado.edu	2017-06-14 07:14:47	2017-06-14 07:14:47	0
236394	1	47	0	clayton.lewis@colorado.edu	2017-08-12 23:41:35	2017-08-12 23:41:35	0
236394	1	53	0	clayton.lewis@colorado.edu	2017-09-22 16:12:46	2017-09-22 16:12:46	0
236395	1	40	0	qin.lv@colorado.edu	2017-07-03 16:32:51	2017-07-03 16:32:51	0
236395	1	47	0	qin.lv@colorado.edu	2017-08-12 19:31:18	2017-08-12 19:31:18	0
236396	1	47	0	michael.main@colorado.edu	2017-08-12 17:18:21	2017-08-12 17:18:21	0
236397	1	47	0	james.martin@colorado.edu	2017-08-13 20:25:30	2017-08-13 20:25:30	0
236397	1	53	0	james.martin@colorado.edu	2017-09-22 16:22:00	2017-09-22 16:22:00	0
236401	1	47	0	shivakaht.mishra@colorado.edu	2017-08-12 21:26:33	2017-08-12 21:26:33	0
236404	1	47	0	leysia.palen@colorado.edu	2017-08-14 01:41:54	2017-08-14 01:41:54	0
236409	1	33	0	bruce.sanders@colorado.edu	2017-06-15 08:30:21	2017-06-15 08:30:21	0
236409	1	47	0	bruce.sanders@colorado.edu	2017-08-12 20:34:24	2017-08-12 20:34:24	0
236409	1	53	0	bruce.sanders@colorado.edu	2017-09-22 13:30:57	2017-09-22 13:30:57	0
236417	1	33	0	Chenhao.Tan@Colorado.EDU	2017-06-15 00:21:26	2017-06-15 00:21:26	0
236417	2	40	0	Chenhao.Tan@Colorado.EDU	2017-07-03 14:00:57	2017-07-08 05:11:39	0
236417	2	47	0	Chenhao.Tan@Colorado.EDU	2017-08-12 22:04:45	2017-08-12 22:04:47	0
236418	2	47	0	ashutosh.trivedi@colorado.edu	2017-08-12 17:46:46	2017-08-13 17:28:38	0
236418	1	50	0	ashutosh.trivedi@colorado.edu	2017-09-08 16:59:48	2017-09-08 16:59:48	0
236418	1	53	0	ashutosh.trivedi@colorado.edu	2017-09-22 13:33:55	2017-09-22 13:33:55	0
236423	1	40	0	tom.yeh@colorado.edu	2017-07-03 19:24:29	2017-07-03 19:24:29	0
236423	1	47	0	tom.yeh@colorado.edu	2017-08-17 21:41:11	2017-08-17 21:41:11	0
236426	1	33	0	Pavol.Cerny@colorado.edu	2017-06-15 09:44:38	2017-06-15 09:44:38	0
236426	1	47	0	Pavol.Cerny@colorado.edu	2017-08-12 17:06:39	2017-08-12 17:06:39	0
236427	1	33	0	eliana.colunga@colorado.edu	2017-06-14 04:36:19	2017-06-14 04:36:19	0
236427	1	47	0	eliana.colunga@colorado.edu	2017-08-14 20:56:14	2017-08-14 20:56:14	0
236427	1	53	0	eliana.colunga@colorado.edu	2017-09-21 23:04:31	2017-09-21 23:04:31	0
236429	1	33	0	casey.fiesler@colorado.edu	2017-06-15 00:37:09	2017-06-15 00:37:09	0
236429	1	47	0	casey.fiesler@colorado.edu	2017-08-12 17:09:23	2017-08-12 17:09:23	0
236429	1	50	0	casey.fiesler@colorado.edu	2017-09-08 16:45:14	2017-09-08 16:45:14	0
236430	1	53	0	frew@colorado.edu	2017-09-22 17:01:43	2017-09-22 17:01:43	0
236432	1	40	0	brian.keegan@colorado.edu	2017-07-03 13:19:43	2017-07-03 13:19:43	0
236432	1	47	0	brian.keegan@colorado.edu	2017-08-12 21:23:52	2017-08-12 21:23:52	0
236435	2	40	0	ricarose@colorado.edu	2017-07-04 12:39:30	2017-07-04 12:51:32	0
236435	1	47	0	ricarose@colorado.edu	2017-08-12 17:16:31	2017-08-12 17:16:31	0
236435	1	53	0	ricarose@colorado.edu	2017-09-22 14:20:46	2017-09-22 14:20:46	0
236436	1	33	0	Danielle.Szafir@Colorado.EDU	2017-06-14 16:38:20	2017-06-14 16:38:20	0
236436	1	47	0	Danielle.Szafir@Colorado.EDU	2017-08-14 14:21:27	2017-08-14 14:21:27	0
236437	1	33	0	amy.voida@colorado.edu	2017-06-14 21:35:57	2017-06-14 21:35:57	0
236437	1	40	0	amy.voida@colorado.edu	2017-07-03 03:18:35	2017-07-03 03:18:35	0
236438	1	47	0	svoida@colorado.edu	2017-08-12 19:20:30	2017-08-12 19:20:30	0
245194	1	27	0	brice.austin@colorado.edu	2017-06-16 22:13:10	2017-06-16 22:13:10	0
245194	1	40	0	brice.austin@colorado.edu	2017-07-03 17:28:01	2017-07-03 17:28:01	0
245203	2	40	0	meredith.callahan@colorado.edu	2017-07-03 14:36:40	2017-07-10 19:56:53	0
245208	1	40	0	denise.chartrand@colorado.edu	2017-07-03 15:11:16	2017-07-03 15:11:16	0
245211	2	27	0	melanie.cutietta@colorado.edu	2017-06-19 21:59:10	2017-06-20 16:34:56	0
245211	1	40	0	melanie.cutietta@colorado.edu	2017-07-03 23:35:51	2017-07-03 23:35:51	0
245214	1	30	0	emily.dommermuth@colorado.edu	2017-06-15 02:17:28	2017-06-15 02:17:28	0
245214	1	40	0	emily.dommermuth@colorado.edu	2017-07-04 18:34:42	2017-07-04 18:34:42	0
245221	2	40	0	arielle.fertman@colorado.edu	2017-07-03 21:03:31	2017-07-04 23:47:22	0
245221	2	47	0	arielle.fertman@colorado.edu	2017-08-14 17:33:55	2017-08-14 17:33:59	0
245223	1	40	0	kathryn.fletcher@colorado.edu	2017-07-03 13:29:08	2017-07-03 13:29:08	0
245228	1	40	0	stacy.gilbert@colorado.edu	2017-07-02 23:50:38	2017-07-02 23:50:38	0
245230	1	40	0	carole.griffin@colorado.edu	2017-07-03 12:25:48	2017-07-03 12:25:48	0
245231	1	27	0	susan.guinn-chipman@colorado.edu	2017-06-16 01:34:40	2017-06-16 01:34:40	0
245231	1	40	0	susan.guinn-chipman@colorado.edu	2017-07-03 14:07:50	2017-07-03 14:07:50	0
245233	1	47	0	carol.hagy@colorado.edu	2017-08-14 19:25:16	2017-08-14 19:25:16	0
245237	1	30	0	eric.harbeson@colorado.edu	2017-06-20 20:31:15	2017-06-20 20:31:15	0
245237	1	47	0	eric.harbeson@colorado.edu	2017-08-13 16:22:39	2017-08-13 16:22:39	0
245239	1	30	0	michael.w.harris@colorado.edu	2017-06-16 12:02:15	2017-06-16 12:02:15	0
245240	2	27	0	renee.harrison@colorado.edu	2017-06-14 21:53:21	2017-06-14 21:53:21	0
245240	1	47	0	renee.harrison@colorado.edu	2017-08-14 13:58:10	2017-08-14 13:58:10	0
245244	1	47	0	gene.hayworth@colorado.edu	2017-08-13 15:44:54	2017-08-13 15:44:54	0
245248	1	29	0	deborah.hollis@colorado.edu	2017-06-16 16:54:01	2017-06-16 16:54:01	0
245248	1	40	0	deborah.hollis@colorado.edu	2017-07-03 19:05:39	2017-07-03 19:05:39	0
245256	1	30	0	cynthia.keller@colorado.edu	2017-06-16 13:51:28	2017-06-16 13:51:28	0
245256	1	40	0	cynthia.keller@colorado.edu	2017-07-03 13:38:47	2017-07-03 13:38:47	0
245258	1	40	0	lisa.kippur@colorado.edu	2017-07-03 11:22:40	2017-07-03 11:22:40	0
245259	1	27	0	jennifer.knievel@colorado.edu	2017-06-16 15:16:20	2017-06-16 15:16:20	0
245259	1	47	0	jennifer.knievel@colorado.edu	2017-08-14 14:48:26	2017-08-14 14:48:26	0
245260	1	40	0	patricia.koberg@colorado.edu	2017-07-06 19:49:08	2017-07-06 19:49:08	0
245261	2	47	0	rebecca.kuglitsch@colorado.edu	2017-08-14 15:56:40	2017-08-14 15:56:50	0
245267	1	33	0	thea.lindquist@colorado.edu	2017-06-16 14:17:18	2017-06-16 14:17:18	0
245268	1	47	0	adam.lisbon@colorado.edu	2017-08-13 20:52:01	2017-08-13 20:52:01	0
245269	2	40	0	mark.locy@colorado.edu	2017-07-05 15:56:40	2017-07-05 15:56:54	0
245269	2	47	0	mark.locy@colorado.edu	2017-08-14 15:53:13	2017-08-14 15:54:18	0
245276	1	40	0	jeffrey.matteson@colorado.edu	2017-07-04 23:39:42	2017-07-04 23:39:42	0
245277	1	40	0	jessie.mccoy@colorado.edu	2017-07-05 00:59:23	2017-07-05 00:59:23	0
245279	1	47	0	athea.merredyth@colorado.edu	2017-08-15 15:14:41	2017-08-15 15:14:41	0
245280	1	40	0	paul.moeller@colorado.edu	2017-07-03 14:00:25	2017-07-03 14:00:25	0
245288	1	40	0	angela.palermo@colorado.edu	2017-07-05 13:28:45	2017-07-05 13:28:45	0
245290	1	27	0	brittany.reed@colorado.edu	2017-06-16 02:24:46	2017-06-16 02:24:46	0
245290	1	47	0	brittany.reed@colorado.edu	2017-08-14 12:18:52	2017-08-14 12:18:52	0
245291	1	40	0	lynne.rest@colorado.edu	2017-07-04 16:23:47	2017-07-04 16:23:47	0
245292	1	33	0	leslie.reynolds@colorado.edu	2017-06-15 23:27:48	2017-06-15 23:27:48	0
245292	1	40	0	leslie.reynolds@colorado.edu	2017-07-02 20:52:54	2017-07-02 20:52:54	0
245292	1	47	0	leslie.reynolds@colorado.edu	2017-08-12 22:31:57	2017-08-12 22:31:57	0
245301	1	47	0	fred.schumacher@colorado.edu	2017-08-15 12:28:43	2017-08-15 12:28:43	0
245306	1	40	0	susie.siders@colorado.edu	2017-07-05 14:55:53	2017-07-05 14:55:53	0
245307	1	30	0	caroline.sinkinson@colorado.edu	2017-06-17 02:22:22	2017-06-17 02:22:22	0
245307	2	40	0	caroline.sinkinson@colorado.edu	2017-07-02 21:59:54	2017-07-06 14:20:20	0
245312	1	29	0	carl.stewart@colorado.edu	2017-06-16 11:06:05	2017-06-16 11:06:05	0
245312	1	33	0	carl.stewart@colorado.edu	2017-06-16 11:07:28	2017-06-16 11:07:28	0
245312	1	40	0	carl.stewart@colorado.edu	2017-07-03 12:05:32	2017-07-03 12:05:32	0
245315	1	40	0	kathryn.w.tallman@colorado.edu	2017-07-04 01:29:10	2017-07-04 01:29:10	0
245322	1	27	0	amy.tomlan@colorado.edu	2017-06-17 01:13:33	2017-06-17 01:13:33	0
245324	1	47	0	allan.vanhoye@colorado.edu	2017-08-14 00:59:42	2017-08-14 00:59:42	0
245325	1	27	0	justin.vanvoorst@colorado.edu	2017-06-14 15:24:34	2017-06-14 15:24:34	0
245325	2	40	0	justin.vanvoorst@colorado.edu	2017-07-05 14:17:04	2017-07-05 16:36:32	0
245325	1	47	0	justin.vanvoorst@colorado.edu	2017-08-15 15:32:33	2017-08-15 15:32:33	0
245329	1	40	0	alexander.watkins@colorado.edu	2017-07-05 05:55:52	2017-07-05 05:55:52	0
245329	1	47	0	alexander.watkins@colorado.edu	2017-08-14 14:17:22	2017-08-14 14:17:22	0
245331	1	47	0	megan.welsh@colorado.edu	2017-08-14 13:35:16	2017-08-14 13:35:16	0
245332	1	30	0	philip.white@colorado.edu	2017-06-15 21:37:11	2017-06-15 21:37:11	0
245332	1	40	0	philip.white@colorado.edu	2017-07-02 22:49:04	2017-07-02 22:49:04	0
245332	1	47	0	philip.white@colorado.edu	2017-08-14 19:45:33	2017-08-14 19:45:33	0
245337	1	40	0	james.williams@colorado.edu	2017-07-03 03:52:50	2017-07-03 03:52:50	0
245340	1	30	0	christopher.yago@colorado.edu	2017-06-16 16:25:35	2017-06-16 16:25:35	0
245340	2	47	0	christopher.yago@colorado.edu	2017-08-14 19:36:46	2017-08-14 19:36:51	0
245799	2	27	0	amalani@uchicago.edu	2017-06-12 01:31:24	2017-06-12 01:31:28	0
245799	1	29	0	amalani@uchicago.edu	2017-06-11 18:34:02	2017-06-11 18:34:02	0
245799	1	30	0	amalani@uchicago.edu	2017-06-12 01:31:24	2017-06-12 01:31:24	0
245799	1	35	0	amalani@uchicago.edu	2017-07-05 05:33:01	2017-07-05 05:33:01	0
245799	2	39	0	amalani@uchicago.edu	2017-06-24 10:55:33	2017-06-24 10:55:36	0
245799	1	40	0	amalani@uchicago.edu	2017-07-02 23:11:29	2017-07-02 23:11:29	0
263092	1	47	0	sunwoolee@uchicago.edu	2017-08-13 06:27:26	2017-08-13 06:27:26	0
263126	1	41	0	ssumner@uchicago.edu	2017-07-10 02:48:55	2017-07-10 02:48:55	0
263126	1	45	0	ssumner@uchicago.edu	2017-07-31 00:01:12	2017-07-31 00:01:12	0
264203	1	35	0	ranantha@uchicago.edu	2017-06-17 03:03:00	2017-06-17 03:03:00	0
264308	1	35	0	stuart@cs.uchicago.edu	2017-06-17 02:52:43	2017-06-17 02:52:43	0
264308	1	36	0	stuart@cs.uchicago.edu	2017-06-18 00:51:13	2017-06-18 00:51:13	0
264308	1	45	0	stuart@cs.uchicago.edu	2017-07-31 16:49:22	2017-07-31 16:49:22	0
264308	1	47	0	stuart@cs.uchicago.edu	2017-08-13 18:41:58	2017-08-13 18:41:58	0
264308	1	49	0	stuart@cs.uchicago.edu	2017-08-17 18:50:42	2017-08-17 18:50:42	0
264358	1	35	0	r-picker@uchicago.edu	2017-06-16 23:08:39	2017-06-16 23:08:39	0
264364	1	35	0	jhr@cs.uchicago.edu	2017-06-17 16:14:04	2017-06-17 16:14:04	0
264364	1	47	0	jhr@cs.uchicago.edu	2017-08-12 23:47:01	2017-08-12 23:47:01	0
264364	1	49	0	jhr@cs.uchicago.edu	2017-08-19 16:38:52	2017-08-19 16:38:52	0
264364	1	53	0	jhr@cs.uchicago.edu	2017-09-25 14:23:06	2017-09-25 14:23:06	0
264367	1	35	0	amr@cs.uchicago.edu	2017-06-16 23:21:24	2017-06-16 23:21:24	0
264367	1	36	0	amr@cs.uchicago.edu	2017-06-18 00:02:20	2017-06-18 00:02:20	0
264367	1	45	0	amr@cs.uchicago.edu	2017-07-31 14:40:13	2017-07-31 14:40:13	0
264367	1	49	0	amr@cs.uchicago.edu	2017-08-17 13:36:46	2017-08-17 13:36:46	0
264385	1	40	0	stevens@cs.uchicago.edu	2017-07-02 15:40:20	2017-07-02 15:40:20	0
264408	1	35	0	d-weisbach@uchicago.edu	2017-06-17 01:38:47	2017-06-17 01:38:47	0
264408	1	36	0	d-weisbach@uchicago.edu	2017-06-18 02:42:09	2017-06-18 02:42:09	0
264408	1	40	0	d-weisbach@uchicago.edu	2017-07-02 20:36:08	2017-07-02 20:36:08	0
277449	1	44	0	news@acnews.com.au	2017-07-23 09:27:49	2017-07-23 09:27:49	0
277449	2	50	0	news@acnews.com.au	2017-09-09 04:40:57	2017-09-09 04:40:58	0
296745	1	35	0	oddie@colorado.edu	2017-06-17 11:33:03	2017-06-17 11:33:03	0
296745	1	40	0	oddie@colorado.edu	2017-07-03 18:56:45	2017-07-03 18:56:45	0
296745	1	49	0	oddie@colorado.edu	2017-08-17 20:18:14	2017-08-17 20:18:14	0
316514	1	40	0	Phil.Weiser@colorado.edu	2017-07-02 15:24:32	2017-07-02 15:24:32	0
354042	2	35	0	rianet@fanews.co.za	2017-06-18 16:43:41	2017-06-18 19:27:44	0
354060	2	42	0	ed@ilanganews.co.za	2017-09-08 06:56:25	2017-09-08 06:56:28	0
354430	1	40	0	newsdesk@engineeringnews.co.za	2017-07-03 06:16:42	2017-07-03 06:16:42	0
354432	1	35	0	zandile@engineeringnews.co.za	2017-06-19 06:39:52	2017-06-19 06:39:52	0
354432	1	40	0	zandile@engineeringnews.co.za	2017-07-13 06:46:43	2017-07-13 06:46:43	0
354602	1	40	0	news@prothomalo.com	2017-07-02 19:36:13	2017-07-02 19:36:13	0
354619	1	40	0	news@computerbarta.com	2017-07-02 19:36:14	2017-07-02 19:36:14	0
354751	2	35	0	news@nstp.com.my	2017-06-18 16:04:26	2017-06-18 23:16:34	0
354985	1	35	0	news@courier-record.com	2017-06-18 20:32:59	2017-06-18 20:32:59	0
355048	1	40	0	advertising@thenews-gazette.com	2017-07-03 12:30:12	2017-07-03 12:30:12	0
355049	1	40	0	editor@thenews-gazette.com	2017-07-03 04:09:04	2017-07-03 04:09:04	0
355049	1	45	0	editor@thenews-gazette.com	2017-07-31 04:47:12	2017-07-31 04:47:12	0
355367	1	49	0	news@kivitv.com	2017-08-21 05:16:18	2017-08-21 05:16:18	0
356036	1	40	0	cfqcnews@ctv.ca	2017-07-02 17:59:20	2017-07-02 17:59:20	0
387493	1	47	0	ezogorsk@indiana.edu	2017-08-12 17:46:03	2017-08-12 17:46:03	0
389311	1	49	0	cbsnetworkradionewsweb@cbsnews.com	2017-08-21 09:24:26	2017-08-21 09:24:26	0
389408	1	49	0	news@ktvt.com	2017-08-21 13:58:39	2017-08-21 13:58:39	0
389565	1	42	0	asevilla@acnnewspapers.com	2017-07-21 05:21:26	2017-07-21 05:21:26	0
389585	2	40	0	newstips@registerguard.com	2017-07-02 19:18:20	2017-07-03 15:34:02	0
392288	2	35	0	news@bermudabroadcasting.com	2017-06-19 16:59:45	2017-06-19 16:59:47	0
392288	2	47	0	news@bermudabroadcasting.com	2017-08-12 23:59:57	2017-08-12 23:59:58	0
395560	1	40	0	lgoods@ctschicago.edu	2017-07-11 15:36:23	2017-07-11 15:36:23	0
395562	1	41	0	kstone@ctschicago.edu	2017-07-08 17:42:03	2017-07-08 17:42:03	0
395563	1	35	0	evogt@ctschicago.edu	2017-06-19 17:38:22	2017-06-19 17:38:22	0
395566	1	35	0	jason.frey@ctschicago.edu	2017-06-19 17:56:47	2017-06-19 17:56:47	0
395566	1	40	0	jason.frey@ctschicago.edu	2017-07-02 19:00:33	2017-07-02 19:00:33	0
395569	1	40	0	gabriel.garcia@ctschicago.edu	2017-07-12 02:37:44	2017-07-12 02:37:44	0
395569	1	41	0	gabriel.garcia@ctschicago.edu	2017-07-12 02:37:54	2017-07-12 02:37:54	0
395572	1	35	0	chad.schwickerath@ctschicago.edu	2017-06-19 22:05:20	2017-06-19 22:05:20	0
395572	1	40	0	chad.schwickerath@ctschicago.edu	2017-07-02 18:37:02	2017-07-02 18:37:02	0
395574	1	40	0	scusick@ctschicago.edu	2017-07-02 18:35:08	2017-07-02 18:35:08	0
395575	1	35	0	charles.jefferson@ctschicago.edu	2017-06-19 19:46:58	2017-06-19 19:46:58	0
395578	1	35	0	mcarr@ctschicago.edu	2017-06-19 18:09:23	2017-06-19 18:09:23	0
395581	2	40	0	jake.siska@ctschicago.edu	2017-07-04 04:31:19	2017-07-04 13:26:37	0
395584	1	35	0	lisa.seiwert@ctschicago.edu	2017-06-30 21:53:07	2017-06-30 21:53:07	0
395584	1	40	0	lisa.seiwert@ctschicago.edu	2017-07-02 18:33:32	2017-07-02 18:33:32	0
397375	1	27	0	dan.herrick@COLORADO.EDU	2017-06-28 15:17:38	2017-06-28 15:17:38	0
399448	1	35	0	jones562@iupui.edu	2017-07-10 14:00:25	2017-07-10 14:00:25	0
400755	1	39	0	makh@iupui.edu	2017-06-27 14:41:43	2017-06-27 14:41:43	0
420942	1	40	0	shaldeman@ctschicago.edu	2017-07-04 17:37:20	2017-07-04 17:37:20	0
420943	2	41	0	rmikva@ctschicago.edu	2017-07-08 23:44:16	2017-07-09 16:42:20	0
420945	1	41	0	Christophe.Ringer@ctschicago.edu	2017-07-08 16:20:49	2017-07-08 16:20:49	0
420947	1	40	0	jspeller@ctschicago.edu	2017-07-04 03:29:06	2017-07-04 03:29:06	0
428214	1	49	0	newsdesk@wcpo.com	2017-08-21 08:32:37	2017-08-21 08:32:37	0
428256	1	49	0	dan.kennedy@newschannel5.com	2017-08-21 06:46:27	2017-08-21 06:46:27	0
428258	1	49	0	emily.luxen@newschannel5.com	2017-08-21 13:43:57	2017-08-21 13:43:57	0
428265	1	49	0	nick.beres@newschannel5.com	2017-08-21 08:30:47	2017-08-21 08:30:47	0
428273	1	49	0	jennifer.kraus@newschannel5.com	2017-08-21 10:57:58	2017-08-21 10:57:58	0
428298	1	49	0	mark.binda@newschannel5.com	2017-08-21 11:32:36	2017-08-21 11:32:36	0
428309	1	49	0	news@wrtv.com	2017-08-21 13:39:20	2017-08-21 13:39:20	0
428382	1	47	0	news@wfmz.com	2017-08-13 06:31:26	2017-08-13 06:31:26	0
428382	1	49	0	news@wfmz.com	2017-08-21 07:50:06	2017-08-21 07:50:06	0
428382	1	50	0	news@wfmz.com	2017-09-09 16:10:39	2017-09-09 16:10:39	0
429752	1	42	0	cando@uchicago.edu	2017-07-16 20:26:09	2017-07-16 20:26:09	0
431406	1	47	0	dhutchin@indiana.edu	2017-08-12 20:37:21	2017-08-12 20:37:21	0
431412	1	47	0	baileypc@indiana.edu	2017-08-13 09:19:21	2017-08-13 09:19:21	0
431415	1	47	0	ccaddoo@indiana.edu	2017-08-12 20:36:33	2017-08-12 20:36:33	0
431432	1	47	0	dajames@indiana.edu	2017-08-12 20:54:57	2017-08-12 20:54:57	0
431434	1	47	0	saknott@indiana.edu	2017-08-13 12:33:16	2017-08-13 12:33:16	0
431439	1	47	0	etl@indiana.edu	2017-08-12 20:50:39	2017-08-12 20:50:39	0
431442	1	47	0	mmcgerr@indiana.edu	2017-08-12 21:33:26	2017-08-12 21:33:26	0
431444	1	47	0	moorman@indiana.edu	2017-08-12 20:29:19	2017-08-12 20:29:19	0
431452	1	47	0	marrosem@indiana.edu	2017-08-12 20:30:31	2017-08-12 20:30:31	0
431453	1	35	0	iksahin@indiana.edu	2017-07-10 14:45:40	2017-07-10 14:45:40	0
431453	1	40	0	iksahin@indiana.edu	2017-07-10 14:45:46	2017-07-10 14:45:46	0
431453	1	41	0	iksahin@indiana.edu	2017-07-10 14:45:17	2017-07-10 14:45:17	0
431453	1	47	0	iksahin@indiana.edu	2017-08-12 22:12:51	2017-08-12 22:12:51	0
431455	1	47	0	joschles@indiana.edu	2017-08-12 20:46:54	2017-08-12 20:46:54	0
431456	1	47	0	raschnei@indiana.edu	2017-08-12 20:49:44	2017-08-12 20:49:44	0
431457	1	47	0	mseigel@indiana.edu	2017-08-12 21:40:18	2017-08-12 21:40:18	0
431460	2	47	0	rlspang@indiana.edu	2017-08-12 21:03:37	2017-08-12 21:03:45	0
431464	1	41	0	mizadoff@indiana.edu	2017-07-08 16:13:52	2017-07-08 16:13:52	0
431464	1	47	0	mizadoff@indiana.edu	2017-08-12 22:45:33	2017-08-12 22:45:33	0
431467	1	47	0	cbannon@indiana.edu	2017-08-12 20:41:31	2017-08-12 20:41:31	0
431470	1	47	0	gbovingd@indiana.edu	2017-08-30 14:00:32	2017-08-30 14:00:32	0
431479	1	41	0	elazzeri@indiana.edu	2017-07-08 15:58:59	2017-07-08 15:58:59	0
431488	1	47	0	rsela@indiana.edu	2017-08-12 20:32:41	2017-08-12 20:32:41	0
431562	1	47	0	intu100@iupui.edu	2017-08-13 03:24:15	2017-08-13 03:24:15	0
431562	1	50	0	intu100@iupui.edu	2017-09-09 01:04:22	2017-09-09 01:04:22	0
431572	1	47	0	dkostrou@iupui.edu	2017-08-13 11:40:44	2017-08-13 11:40:44	0
431584	1	47	0	whschnei@iupui.edu	2017-08-13 18:43:52	2017-08-13 18:43:52	0
431588	1	47	0	mwokeck@iupui.edu	2017-08-12 20:41:11	2017-08-12 20:41:11	0
431589	1	47	0	xzhang@iupui.edu	2017-08-12 20:55:05	2017-08-12 20:55:05	0
486754	1	47	0	ryancm@indiana.edu	2017-08-13 03:17:48	2017-08-13 03:17:48	0
496289	1	44	0	ishanu@uchicago.edu	2017-07-29 06:30:39	2017-07-29 06:30:39	0
496995	1	53	0	Victor.Bright@Colorado.EDU	2017-09-20 21:11:06	2017-09-20 21:11:06	0
497001	2	47	0	John.Hall@Colorado.EDU	2017-08-13 03:44:10	2017-08-13 14:20:49	0
497005	2	47	0	Henry.Kapteyn@Colorado.EDU	2017-08-13 23:39:01	2017-08-13 23:42:03	0
497005	1	53	0	Henry.Kapteyn@Colorado.EDU	2017-09-21 14:29:24	2017-09-21 14:29:24	0
497006	1	47	0	leeyc@Colorado.EDU	2017-08-13 12:12:58	2017-08-13 12:12:58	0
497008	1	53	0	William.Lineberger@Colorado.EDU	2017-09-21 03:08:03	2017-09-21 03:08:03	0
497010	1	47	0	Robert.Mcleod@Colorado.EDU	2017-08-16 03:48:39	2017-08-16 03:48:39	0
497011	1	47	0	Alan.Mickelson@Colorado.EDU	2017-08-16 12:28:19	2017-08-16 12:28:19	0
497011	1	53	0	Alan.Mickelson@Colorado.EDU	2017-09-21 01:08:39	2017-09-21 01:08:39	0
497016	1	47	0	Won.Park@Colorado.EDU	2017-08-14 21:56:14	2017-08-14 21:56:14	0
497023	1	47	0	David.Walba@Colorado.EDU	2017-08-13 02:31:00	2017-08-13 02:31:00	0
501819	1	47	0	gordana.dukovic@colorado.edu	2017-08-16 19:29:45	2017-08-16 19:29:45	0
501819	1	53	0	gordana.dukovic@colorado.edu	2017-09-20 01:45:00	2017-09-20 01:45:00	0
501821	1	47	0	Joseph.Falke@colorado.edu	2017-08-16 06:29:53	2017-08-16 06:29:53	0
501821	1	53	0	Joseph.Falke@colorado.edu	2017-09-22 00:17:37	2017-09-22 00:17:37	0
501829	1	47	0	Carl.Koval@colorado.edu	2017-08-13 19:59:00	2017-08-13 19:59:00	0
501829	1	53	0	Carl.Koval@colorado.edu	2017-09-20 19:39:47	2017-09-20 19:39:47	0
501830	1	47	0	robert.kuchta@colorado.edu	2017-08-15 23:15:35	2017-08-15 23:15:35	0
501830	1	53	0	robert.kuchta@colorado.edu	2017-09-21 19:49:41	2017-09-21 19:49:41	0
501831	1	47	0	jennifer.kugel@colorado.edu	2017-08-15 22:32:35	2017-08-15 22:32:35	0
501831	1	53	0	jennifer.kugel@colorado.edu	2017-09-22 15:07:21	2017-09-22 15:07:21	0
501836	1	47	0	michael.marshak@colorado.edu	2017-08-14 21:34:13	2017-08-14 21:34:13	0
501837	1	47	0	david.mckay@colorado.edu	2017-08-15 03:15:40	2017-08-15 03:15:40	0
501837	1	53	0	david.mckay@colorado.edu	2017-09-20 13:56:03	2017-09-20 13:56:03	0
501839	1	47	0	garret.miyake@colorado.edu	2017-08-15 18:39:44	2017-08-15 18:39:44	0
501839	1	53	0	garret.miyake@colorado.edu	2017-09-20 13:30:33	2017-09-20 13:30:33	0
501842	2	47	0	amy.palmer@colorado.edu	2017-08-15 17:38:49	2017-08-15 17:45:19	0
501843	1	53	0	arthur.pardi@colorado.edu	2017-09-20 15:10:19	2017-09-20 15:10:19	0
501845	1	47	0	Robert.Parson@colorado.edu	2017-08-15 21:05:05	2017-08-15 21:05:05	0
501845	1	53	0	Robert.Parson@colorado.edu	2017-09-21 19:56:48	2017-09-21 19:56:48	0
501847	2	53	0	sammakia@colorado.edu	2017-09-20 11:38:33	2017-09-20 11:38:35	0
501851	1	53	0	Marcelo.Sousa@colorado.edu	2017-09-20 17:41:50	2017-09-20 17:41:50	0
501854	1	53	0	zhongping.tan@colorado.edu	2017-09-21 10:28:19	2017-09-21 10:28:19	0
501859	1	47	0	maciej.walczak@colorado.edu	2017-08-14 16:10:16	2017-08-14 16:10:16	0
501859	1	53	0	maciej.walczak@colorado.edu	2017-09-21 13:16:03	2017-09-21 13:16:03	0
501864	1	47	0	Wei.Zhang@colorado.edu	2017-08-14 01:33:24	2017-08-14 01:33:24	0
501864	1	53	0	Wei.Zhang@colorado.edu	2017-09-21 12:49:07	2017-09-21 12:49:07	0
501867	1	47	0	nabilah.rontucarlon@colorado.edu	2017-08-15 21:04:58	2017-08-15 21:04:58	0
501867	1	53	0	nabilah.rontucarlon@colorado.edu	2017-09-22 01:52:39	2017-09-22 01:52:39	0
501871	1	53	0	Susan.Hendrickson@colorado.edu	2017-09-20 22:51:12	2017-09-20 22:51:12	0
501875	1	53	0	christopher.bowman@colorado.edu	2017-09-21 15:23:26	2017-09-21 15:23:26	0
501883	1	47	0	Pierpont@colorado.edu	2017-08-15 23:26:33	2017-08-15 23:26:33	0
501883	1	53	0	Pierpont@colorado.edu	2017-09-21 00:00:23	2017-09-21 00:00:23	0
512062	1	42	0	mkelley@pbdailynews.com	2017-07-20 02:02:17	2017-07-20 02:02:17	0
689246	2	50	0	memusgra@iupui.edu	2017-09-11 15:17:40	2017-09-11 15:18:38	0
689271	1	50	0	mmhopson@iupui.edu	2017-09-09 04:43:16	2017-09-09 04:43:16	0
